0 0.0316901 -99999 -0.0413503 -0.1718 -0.0162366 -0.0585479 -0.0191749 -0.0560351 0.0121622 0.00493671 -99999 0.00617647 -99999 -0.0568927 -0.0443965 -0.0716058 -0.0558621 -99999 -0.092662 -0.0212357 -0.110726 -0.0225 -0.062451 -0.0519467 -0.051836 -0.13 -0.109382 -0.0970659 -0.0391366 -0.0145585 -0.119565 -0.141081 -0.0395066 -0.0624345 -0.049466 -99999 -99999 0.0234911 -0.0365714 -0.0152542 0.0107719 -0.0444479 0.0168404 -0.0440952 0.010404 -0.0196809 -0.0629297 -0.220446 -0.040359 -0.0882888 -0.03 -0.0267059 -0.0855172 -0.0228571 -0.111894 -99999 -0.0905988 -0.073125 -0.0798316 -99999 -0.0743964 -0.0858812 -99999 -0.0281728 -0.137692 -99999 -0.0834177 -0.0341905 -0.0532 -0.112284 -0.0661092 -0.018538 -0.139841 -0.0683607 -0.0257983 -0.0932972 -0.0527368 -0.0404 -0.100233 0.00228758 -99999 0.16 -0.0822656 0.0277444 -0.0120994 -0.0886767 -0.0472183 -0.197368 -0.07633
1 -0.0634884 -99999 -0.120558 -0.140455 -0.0414136 -0.102826 -0.181216 -0.0896604 -0.0571166 -0.134521 -99999 -0.146923 -99999 -0.0621171 -0.103575 -0.0279661 -0.0908 -99999 -0.0970201 -0.103017 -0.0676364 -0.0131299 -0.00427027 -0.0797114 -0.106212 -0.160323 -0.062579 -0.109285 -0.101892 -0.0622073 0.00102564 -0.0754839 -0.049284 -0.0956463 -0.00358852 -99999 -99999 -0.109748 -0.0138144 -0.127778 -0.0605618 -0.0801408 -0.119062 -0.130441 -0.111961 -0.150339 -0.0349513 -0.000503597 -0.165743 -0.0803261 -0.102208 -0.127439 -0.0464706 -0.0920472 -0.0436806 -99999 -0.189735 -0.125742 -0.139066 0.0327451 -0.0822936 -0.10098 -99999 -0.0920792 -0.112562 -99999 -0.0687629 -0.116822 -0.0718462 -0.0848918 -0.0410256 -0.0935227 -0.132902 -0.091978 -0.157923 -0.105943 -0.118571 -0.0853171 -0.179839 -0.0885538 -99999 -99999 -0.125532 -0.173117 -0.0811402 -0.124845 -0.0816256 -0.0530769 -0.0509464
2 -0.178406 -99999 -0.119511 -0.157234 -0.116709 -0.0968156 -0.0887582 -0.11155 -0.0170073 -0.076087 -99999 -0.155333 -99999 -0.138173 -0.0906914 -0.0741333 -0.0037037 -99999 -0.0920399 -0.0440554 -0.128273 -0.0591627 -0.0721622 -0.125424 -0.110373 -0.0960194 -0.141591 -0.116168 -0.0541137 -0.0850907 -0.0453247 -0.106486 -0.0833492 -0.056436 -0.110388 -99999 -99999 -0.163452 -0.0593103 -0.166304 -0.0892063 -0.125516 -0.113312 -0.147838 -0.0852 -0.103478 -0.131225 -0.168929 -0.104685 -0.0622905 -0.104453 -0.0486223 -0.145354 -0.132241 -0.118462 -99999 -0.213974 -0.0724161 -0.146052 -0.167627 -0.111679 -0.108263 -99999 -0.0870073 -0.135053 -99999 -0.0969896 -0.147056 -0.142381 -0.113061 -0.117077 -0.172515 -0.15381 -0.128583 -0.155946 -0.0800913 -0.0963069 -0.129897 -0.15592 -0.174843 -99999 -99999 -0.0878587 -0.0707752 -0.0897638 -0.156879 -0.051204 -0.133373 -0.0384177
3 -0.0808861 -99999 -0.0796436 -0.207347 -0.116963 -0.0629891 -0.236773 -0.148022 -0.18697 -0.187021 -99999 -0.170952 -99999 -0.139297 -0.208268 -0.151127 -0.150851 -99999 -0.153086 -0.15109 -0.126872 -0.105734 -0.126737 -0.169388 -0.169378 -0.192243 -0.129645 -0.145894 -0.162432 -0.11453 -0.2085 -0.183459 -0.111262 -0.170421 -0.108942 -99999 -99999 -0.0381988 -0.16205 -0.175607 -0.171923 -0.115315 -0.128148 -0.1785 -0.241402 -0.126933 -0.16675 -0.185115 -0.172802 -0.180968 -0.190825 -0.102304 -0.115607 -0.237468 -0.119278 -99999 -0.205432 -0.176497 -0.236589 -0.142222 -0.149037 -0.144257 -99999 -0.16832 -0.209821 -99999 -0.174399 -0.133881 -0.138316 -0.144974 -0.210411 -0.110114 -0.148129 -0.0900766 -0.152982 -0.130495 -0.189183 -0.125255 -0.210157 -0.156007 -99999 -99999 -0.151514 -0.1988 -0.149767 -0.118301 -0.141186 -0.113371 -0.183065
4 -0.267209 -99999 -0.250692 -0.246782 -0.343974 -0.257835 -0.303217 -0.303371 -0.369216 -0.297974 -99999 -0.320769 -99999 -0.28665 -0.258118 -0.304844 -0.118889 -99999 -0.288326 -0.245168 -0.231478 -0.195803 -0.217665 -0.287784 -0.295494 -0.332909 -0.262555 -0.24959 -0.247668 -0.221777 -0.38 -0.241205 -0.293765 -0.292414 -0.282947 -99999 -0.171622 -0.302714 -0.272762 -0.123051 -0.284715 -0.320787 -0.261821 -0.198376 -0.348182 -0.311364 -0.19664 -0.291832 -0.278809 -0.227588 -0.234631 -0.260101 -0.3086 -0.29206 -0.295136 -99999 -0.368483 -0.290661 -0.264567 -0.29 -0.265992 -0.301894 -99999 -0.287243 -0.314808 -99999 -0.306838 -0.235806 -0.256986 -0.218 -0.238084 -0.235085 -0.328246 -0.308255 -0.23036 -0.300804 -0.260348 -0.234939 -0.370312 -0.277858 -99999 -99999 -0.272452 -0.252353 -0.250716 -0.250939 -0.258242 -0.320769 -0.300959
5 -0.0989157 -99999 -0.0803413 -0.000752688 -0.08175 -0.0838919 -0.0749375 -0.0780214 -0.0590226 -0.138902 -99999 -0.0335897 -99999 -0.0683955 -0.0915855 -0.00407407 -0.0598039 -99999 -0.0619535 -0.0623269 -0.0918667 -0.017746 -0.109807 -0.099029 -0.0983915 -0.216364 -0.0817053 -0.0818377 -0.054078 -0.0950916 -0.152887 -0.0598913 -0.0444641 -0.0217683 -0.0740385 -99999 -99999 -0.0935122 -0.0856364 -0.0785714 -0.0342809 -0.144927 -0.0563536 -0.0967213 -0.0613761 -0.138216 -0.0664158 -0.0196503 -0.0963184 0.0781905 -0.0759574 -0.0631897 -0.095 -0.0752045 -0.0734114 0.00157895 -0.103086 -0.14859 -0.066 -0.0469697 -0.120535 -0.129932 -99999 -0.12519 -0.0226872 -99999 -0.0747923 -0.0508368 -0.0499024 -0.0739821 -0.0416564 -0.0743386 -0.203838 -0.071295 -0.105847 -0.0513913 -0.0928571 -0.0750492 -0.0168852 -0.0896995 -99999 -99999 -0.0391368 -0.115571 -0.0711293 -0.0801829 -0.0369937 -0.0475269 -0.0862145
6 0.0162791 -99999 -0.0372098 -0.028 -0.0164242 0.0174652 -0.0205147 -0.0177958 -0.0970588 0.0422368 -99999 0.0794118 -99999 -0.018169 -0.0458601 0.0294203 -0.211 -99999 -0.0225 -0.0264656 0.0111111 -0.016022 -0.0569939 -0.0764507 -0.0306242 0.0133962 -0.0517143 -0.0124969 -0.0363793 -0.0101345 -0.129512 -0.16241 -0.024051 0.0117329 0.0278804 -99999 -99999 -0.0326752 -0.0342105 -0.0433333 0.0302542 -0.140902 0.0787821 -0.0731746 0.0396491 -0.0968966 -0.00626126 -0.0252 -0.0443011 0.0701307 0.00059322 -0.0335897 -0.108065 0.0043379 -0.0274576 -99999 -0.163108 -0.187798 -0.08893 -0.116071 -0.0181624 -0.0420833 -99999 -0.0254037 -0.0461749 -99999 0.00865248 0.00979487 -0.0156471 -0.0160341 -0.0625091 0.0963514 -0.123494 -0.0437079 -0.0530698 0.0174531 -0.072537 -0.035144 0.0537838 -0.0471325 -99999 -99999 -0.0146729 0.0250847 0.02916 -0.0321938 -0.0457708 -0.0254321 -0.00909434
7 -0.229701 -99999 -0.154628 -0.363708 -0.24043 -0.171595 -0.191132 -0.141561 -0.133247 -0.118777 -99999 -0.147143 -99999 -0.15148 -0.102898 -0.129346 -0.163462 -99999 -0.139696 -0.112013 -0.122512 -0.13992 -0.145556 -0.17463 -0.162374 -0.18964 -0.174706 -0.1658 -0.170948 -0.14383 -0.171176 -0.275506 -0.170473 -0.197682 -0.13532 -99999 -99999 -0.0621569 -0.258081 -0.185217 -0.115214 -0.0975182 -0.138476 -0.112 -0.0640541 -0.135668 -0.153965 -0.155484 -0.123628 -0.117624 -0.103913 -0.118585 -0.128824 -0.170346 -0.158889 -99999 -0.157075 -0.163443 -0.193518 -0.105667 -0.214726 -0.135422 -99999 -0.136519 -0.11101 -99999 -0.126285 -0.158627 -0.185534 -0.126452 -0.120248 -0.223049 -0.119487 -0.135364 -0.0805263 -0.122877 -0.100305 -0.144008 -0.253774 -0.118699 -99999 -99999 -0.155548 -0.210545 -0.121587 -0.138774 -0.158189 -0.067931 -0.106045
8 -0.133288 -99999 -0.132549 -0.165333 -0.137629 -0.194957 -0.222444 -0.126977 -0.24374 -0.169882 -99999 -0.194722 -99999 -0.134391 -0.16137 -0.0923392 -99999 -99999 -0.126218 -0.180373 -0.095 -0.104603 -0.191015 -0.159348 -0.159103 -0.233061 -0.153065 -0.147763 -0.155731 -0.0904767 -0.185467 -0.161275 -0.179435 -0.196288 -0.125288 -99999 -99999 -0.0914724 -0.0775728 -0.21873 -0.127741 -0.218361 -0.162077 -0.0999099 -0.121881 -0.189778 -0.164933 -0.28152 -0.167807 -0.195922 -0.113808 -0.133832 -0.338785 -0.116667 -0.165331 -0.0986957 -0.138974 -0.176029 -0.117774 -0.24 -0.126735 -0.16144 -99999 -0.170348 -0.16942 -99999 -0.190655 -0.0913992 -0.11087 -0.109558 -0.0812195 -0.0991111 -0.15131 -0.215684 -0.179912 -0.131782 -0.190434 -0.127732 -0.07752 -0.124609 -99999 -99999 -0.149916 -0.262632 -0.161828 -0.149695 -0.0942623 -0.15659 -0.210997
9 -0.157714 -99999 -0.162441 -0.118155 -0.114375 -0.201951 -0.19559 -0.163888 -0.163178 -0.208861 -99999 -0.189481 -99999 -0.1375 -0.186061 -0.193101 -0.160833 -99999 -0.17161 -0.18184 -0.197481 -0.157777 -0.210426 -0.151619 -0.191345 -0.189538 -0.185441 -0.191271 -0.179553 -0.197528 -0.166 -0.152659 -0.194833 -0.221945 -0.147784 -99999 -99999 -0.166905 -0.159914 -0.265965 -0.19 -0.14277 -0.17478 -0.282 -0.2 -0.225309 -0.192949 -0.136364 -0.158153 -0.0743871 -0.142299 -0.105516 -0.187699 -0.143828 -0.212556 -99999 -0.210513 -0.297218 -0.166299 -0.181429 -0.169781 -0.17407 -99999 -0.15692 -0.235915 -99999 -0.147574 -0.253333 -0.108791 -0.196683 -0.18697 -0.173537 -0.208 -0.14899 -0.128214 -0.20859 -0.206 -0.217332 -0.150567 -0.142296 -99999 -99999 -0.171725 -0.205417 -0.100836 -0.21041 -0.179886 -0.278148 -0.21669
10 0.00941176 -99999 -0.243136 -0.122619 -0.320667 -0.268623 -0.294276 -0.215509 -0.213099 -0.272658 -99999 -0.219048 -99999 -0.24422 -0.252778 -0.291898 -0.30875 -99999 -0.224527 -0.184633 -0.246716 -0.179805 -0.204012 -0.233415 -0.227901 -0.250354 -0.262043 -0.206229 -0.231266 -0.228321 -0.329429 -0.239403 -0.191781 -0.237465 -0.210052 -99999 -99999 -0.104132 -0.325872 -0.323196 -0.263719 -0.184216 -0.232252 -0.0938182 -0.265758 -0.273412 -0.20639 -0.197759 -0.264683 -0.299333 -0.225569 -0.241133 -0.304433 -0.188291 -0.224167 -99999 -0.180556 -0.335891 -0.299745 -0.278462 -0.194723 -0.250174 -99999 -0.232731 -0.244807 -99999 -0.252462 -0.135616 -0.246437 -0.311584 -0.281568 -0.254121 -0.158859 -0.218966 -0.21055 -0.228829 -0.25475 -0.234904 -0.230339 -0.212794 -99999 -99999 -0.271924 -0.201905 -0.274033 -0.219811 -0.195522 -0.176707 -0.228947
11 -0.219524 -99999 -0.222784 -0.162405 -0.208261 -0.179524 -0.185 -0.156628 -0.154533 -0.205 -99999 -0.122222 -99999 -0.196209 -0.137812 -0.203699 -0.202174 -99999 -0.175561 -0.174137 -0.155213 -0.179184 -0.239121 -0.19964 -0.199564 -0.284188 -0.198945 -0.152055 -0.189899 -0.167592 -0.31303 -0.12 -0.184018 -0.113395 -0.129418 -99999 -99999 -0.223374 -0.18956 -0.156903 -0.0887805 -0.132145 -0.105267 -0.0951546 -0.249818 -0.116211 -0.204618 -0.100606 -0.151488 -0.102889 -0.229644 -0.140796 -0.243182 -0.191574 -0.228091 -99999 -0.223714 -0.281935 -0.132827 -0.145862 -0.142958 -0.165866 -99999 -0.1605 -0.200929 -99999 -0.0935986 -0.114416 -0.174593 -0.142208 -0.170755 -0.179051 -0.175125 -0.199338 -0.195794 -0.181678 -0.201264 -0.121234 -0.216142 -0.187578 -99999 -99999 -0.11852 -0.144701 -0.192275 -0.142275 -0.145312 -0.150488 -0.172587
12 -99999 -99999 0.0738512 -99999 0.139892 0.157792 0.134155 0.147143 0.299143 0.224452 -99999 -99999 -99999 0.157939 0.159641 0.018189 -99999 -99999 0.0687426 0.148904 0.12983 0.164771 0.112396 0.120886 0.142243 0.0737736 0.142994 0.142905 0.0678882 0.122692 -99999 0.104514 0.14954 0.182154 0.255072 -99999 -99999 0.16 0.223723 -99999 0.0762774 0.0921262 0.0919417 0.411709 -99999 0.081875 0.195056 0.34049 0.152222 0.00572254 0.147221 0.212194 -0.0861702 0.248558 0.133644 -99999 0.0680233 -0.0603226 0.120855 -99999 0.22724 0.15373 -99999 0.103407 0.159366 -99999 0.0337162 0.190077 0.213981 0.195414 0.108456 0.125802 0.169314 0.238881 0.0781702 0.221169 0.114339 0.162403 0.212185 0.202841 -99999 -99999 0.225794 0.113576 0.162281 0.128595 0.107705 0.0232184 0.175185
13 -0.177 -99999 -0.140467 -0.0958228 -0.168111 -0.122492 -0.208812 -0.147755 -0.128971 -0.160677 -99999 -0.295429 -99999 -0.187371 -0.136761 -0.20274 -0.233 -99999 -0.140434 -0.120717 -0.164 -0.113128 -0.0974026 -0.158892 -0.173887 -0.19275 -0.0949541 -0.138971 -0.127441 -0.139989 -0.137077 -0.191517 -0.159356 -0.105423 -0.115417 -99999 -0.156875 -0.189273 -0.154739 -0.194737 -0.12747 -0.0997203 -0.130258 -0.107705 -0.0582 -0.190347 -0.193248 -0.118175 -0.135902 -0.136286 -0.099662 -0.157075 -0.191087 -0.1631 -0.122523 -99999 -0.208214 -0.156269 -0.161824 -0.247551 -0.160545 -0.17087 -99999 -0.199923 -0.217895 -99999 -0.209525 -0.14922 -0.07867 -0.124299 -0.150556 -0.0734839 -0.0755556 -0.154674 -0.135607 -0.216122 -0.1075 -0.126801 -0.254516 -0.173248 -99999 -99999 -0.188624 -0.236613 -0.115021 -0.139238 -0.127327 -0.0544878 -0.213866
14 -0.176747 -99999 -0.0662292 -0.103474 -0.102707 -0.0837396 -0.027861 -0.0912521 -0.130136 -0.0938889 -99999 -0.118916 -99999 -0.0858061 -0.117381 -0.148832 -0.00116279 -99999 -0.0553043 -0.0618377 -0.05425 -0.0515402 -0.0960952 -0.1152 -0.105277 -0.133922 -0.122681 -0.1072 -0.0768224 -0.079408 -0.0377108 -0.0809497 -0.0973381 -0.0834043 -0.0524181 -99999 -99999 -0.0765734 -0.134592 0.00460674 -0.0720339 -0.0963973 -0.0603571 -0.0996825 -0.201892 -0.0693478 -0.0888145 -0.0758537 -0.0865891 0.0354144 -0.0517625 -0.0949115 -0.138462 -0.142 -0.119707 -99999 -0.0771111 -0.108095 -0.0994444 -0.0897333 -0.0627402 -0.1264 -99999 -0.12855 -0.197228 -99999 -0.0496575 -0.0999487 -0.112232 -0.107817 -0.0709492 -0.134167 -0.0727778 -0.0652143 -0.107786 -0.049638 -0.0871781 -0.0970364 -0.087094 -0.0914682 -99999 -99999 -0.105589 -0.0495092 -0.0692177 -0.0600493 -0.0964372 -0.0913265 -0.0903333
15 -0.126857 -99999 -0.210814 -0.258409 -0.218944 -0.221421 -0.202662 -0.246261 -0.193571 -0.197355 -99999 -0.138667 -99999 -0.203256 -0.175895 -0.202899 -0.296316 -99999 -0.22283 -0.202152 -0.25798 -0.147006 -0.284699 -0.225168 -0.226671 -0.155263 -0.228032 -0.221161 -0.183358 -0.158743 -0.114839 -0.197037 -0.191707 -0.220038 -0.145921 -99999 -99999 -0.24 -0.173378 -0.254158 -0.177063 -0.160456 -0.22965 -0.227009 -0.25243 -0.18362 -0.235478 -0.2465 -0.174262 -0.151266 -0.197108 -0.208883 -0.178421 -0.2357 -0.170747 -99999 -0.237353 -0.200656 -0.125986 -99999 -0.174508 -0.16678 -99999 -0.226777 -0.289238 -99999 -0.232603 -0.215426 -0.192706 -0.260746 -0.126343 -0.157467 -0.207483 -0.229727 -0.20466 -0.250577 -0.186347 -0.203382 -0.208692 -0.191471 -99999 -99999 -0.151699 -0.156974 -0.204186 -0.207612 -0.161208 -0.09 -0.129602
16 -0.274667 -99999 -0.154561 -0.0954321 -0.0925731 -0.184906 -0.170679 -0.112019 -0.218529 -0.122644 -99999 -0.0877778 -99999 -0.162158 -0.144241 -0.135391 -0.194528 -99999 -0.168034 -0.112904 -0.152105 -0.102798 -0.0863529 -0.215194 -0.187166 -0.209101 -0.1542 -0.122164 -0.127968 -0.141579 -0.227701 -0.173509 -0.138653 -0.174377 -0.0984127 -99999 -99999 -0.185702 -0.152013 -0.144909 -0.0859524 -0.180562 -0.135474 -0.126634 -0.203708 -0.165337 -0.111055 -0.0988 -0.152185 -0.15443 -0.104077 -0.131772 -0.207476 -0.143709 -0.146299 -99999 -0.0242282 -0.142687 -0.146747 -0.182549 -0.137782 -0.164728 -99999 -0.19979 -0.148274 -99999 -0.0631525 -0.102217 -0.127962 -0.161759 -0.171831 -0.154737 -0.11152 -0.0497091 -0.1114 -0.168201 -0.184503 -0.129924 -0.157536 -0.131338 -99999 -99999 -0.0983258 -0.170968 -0.127899 -0.155617 -0.180854 -0.127173 -0.0611373
17 -0.255152 -99999 -0.202381 -0.183864 -0.123222 -0.172279 -0.14305 -0.169922 -0.32187 -0.104676 -99999 -0.21 -99999 -0.17194 -0.204914 -0.164588 -99999 -99999 -0.194916 -0.13804 -0.139386 -0.176429 -0.289495 -0.205949 -0.244808 -0.234632 -0.173986 -0.192065 -0.152967 -0.199942 -0.325238 -0.212953 -0.160512 -0.188304 -0.152174 -99999 -99999 -0.13271 -0.242251 -0.25 -0.174255 -0.20808 -0.276458 -0.235225 -0.186216 -0.213855 -0.198655 -0.165893 -0.154611 -0.218913 -0.194341 -0.124077 -0.205868 -0.242838 -0.217649 -0.177027 -0.208026 -0.25101 -0.277968 -0.509545 -0.204082 -0.212309 -99999 -0.230803 -0.29335 0.0293548 -0.200672 -0.198807 -0.16 -0.220214 -0.232385 -0.115143 -0.29 -0.206667 -0.17209 -0.239443 -0.210636 -0.136805 -0.246957 -0.174649 -99999 -99999 -0.207708 -0.224032 -0.183809 -0.192676 -0.200582 -0.193478 -0.179315
18 -0.343699 -99999 -0.248707 -0.246809 -0.188 -0.165758 -0.211695 -0.219945 -0.180959 -0.147027 -99999 -0.193636 -99999 -0.247101 -0.277228 -0.184667 -0.169184 -99999 -0.213157 -0.211739 -0.275023 -0.215382 -0.25884 -0.21049 -0.239134 -0.310612 -0.265962 -0.247642 -0.207513 -0.212044 -0.112258 -0.169273 -0.224509 -0.252845 -0.161862 -99999 -99999 -0.146883 -0.242424 -0.1598 -0.187642 -0.252281 -0.1731 -0.21614 -0.306211 -0.218553 -0.221878 -0.217059 -0.236382 -0.240503 -0.259307 -0.244272 -0.392286 -0.278826 -0.312822 -99999 -0.260201 -0.141111 -0.251935 -0.33 -0.250684 -0.278616 -99999 -0.262616 -0.285636 -99999 -0.318259 -0.213246 -0.162637 -0.220139 -0.268051 -0.223677 -0.291136 -0.290075 -0.19817 -0.18933 -0.218835 -0.215308 -0.137241 -0.17977 -99999 -99999 -0.218504 -0.203798 -0.189317 -0.182293 -0.273028 -0.315028 -0.198938
19 -0.135412 -99999 -0.170809 -0.263947 -0.293711 -0.160805 -0.209388 -0.199271 -0.181278 -0.200595 -99999 -0.418 -99999 -0.193216 -0.25445 -0.208873 -0.3024 -99999 -0.223684 -0.251607 -0.2296 -0.180206 -0.169296 -0.220606 -0.215854 -0.242756 -0.221409 -0.22974 -0.187898 -0.220142 -0.298831 -0.22102 -0.218633 -0.251085 -0.209444 -99999 -99999 -0.198158 -0.219045 -0.146111 -0.231077 -0.250949 -0.207595 -0.202128 -0.211224 -0.257619 -0.250679 -0.248532 -0.18506 -0.229172 -0.218703 -0.199476 -0.276111 -0.207104 -0.256439 -0.23439 -0.229556 -0.336818 -0.253022 -0.306078 -0.219073 -0.19959 -99999 -0.237419 -0.323901 -99999 -0.249644 -0.15028 -0.283854 -0.230699 -0.262969 -0.290256 -0.217429 -0.268686 -0.202393 -0.215455 -0.204677 -0.219868 -0.209464 -0.180867 -99999 -99999 -0.13626 -0.16125 -0.222841 -0.249724 -0.225825 -0.248674 -0.176053
20 -0.224257 -99999 -0.283992 -0.241683 -0.190606 -0.219673 -0.12101 -0.217363 -0.136087 -0.219673 -99999 -0.217187 -99999 -0.207032 -0.245636 -0.294783 -0.245472 -99999 -0.201322 -0.186461 -0.258696 -0.196865 -0.196827 -0.235353 -0.221229 -0.2322 -0.220461 -0.191767 -0.173485 -0.172818 -0.142778 -0.186667 -0.227146 -0.244431 -0.22765 -99999 -0.282727 -0.150375 -0.169352 -0.155289 -0.205385 -0.243424 -0.244914 -0.223621 -0.224227 -0.112609 -0.206319 -0.208219 -0.238136 -0.189106 -0.257431 -0.223517 -0.277767 -0.168454 -0.246129 -99999 -0.178725 -0.213802 -0.224624 -0.278814 -0.23693 -0.261602 -99999 -0.26501 -0.259238 -99999 -0.160785 -0.199498 -0.136497 -0.23519 -0.261571 -0.162883 -0.248674 -0.182082 -0.221043 -0.199687 -0.140532 -0.166263 -0.0970769 -0.224286 -99999 -99999 -0.188407 -0.307027 -0.183606 -0.173825 -0.225766 -0.215 -0.222713
21 -0.00898734 0.29 -0.0670796 0.0461446 -0.012807 -0.0864923 -0.0566883 -0.0288285 -0.0560317 0.00446809 -99999 0.0214815 -99999 -0.0692347 -0.0399587 -0.0697163 0.0988889 -99999 -0.0425031 -0.0373374 -0.00404651 -0.0770812 -0.0257471 -0.0607309 -0.0724242 0.00840909 -0.00870968 -0.01984 -0.0420741 -0.0251869 -0.160617 0.0204545 -0.0807471 -0.0385714 -0.0968023 -99999 -99999 -0.103151 -0.10375 -0.0454902 -0.0655472 -0.0581857 -0.0896377 -0.0335398 -0.157368 -0.092585 -0.0392671 -0.014 -0.0306094 -0.0501111 -0.018658 -0.0844498 -0.105632 -0.0680909 -0.0481452 -99999 -0.160789 -0.113433 -0.02341 -0.0303333 -0.0814286 -0.0866271 -99999 -0.0780244 -0.114068 -99999 -0.110304 0.00580488 -0.0743709 -0.0558853 -0.114636 0.000463576 -0.127108 -0.0657322 0.0266502 -0.0876441 -0.0235637 -0.032973 -0.0263107 -0.0723969 -99999 -99999 -0.0856132 -0.021619 -0.0545455 -0.00851711 -0.0187908 -0.0556287 -0.0312281
22 -0.152857 -99999 -0.11567 -0.101642 -0.175989 -0.221588 -0.229843 -0.205983 -0.0571845 -0.237975 -99999 -0.194727 -99999 -0.213213 -0.228143 -0.260968 -0.235957 -99999 -0.197298 -0.12794 -0.2521 -0.18392 -0.237564 -0.170484 -0.19683 -0.270548 -0.216201 -0.201597 -0.216774 -0.145633 -0.202 -0.21 -0.120879 -0.239354 -0.17861 -99999 -0.136667 -0.246 -0.151326 -0.276154 -0.220265 -0.173689 -0.167701 -0.200108 -0.239691 -0.182216 -0.218504 -0.216555 -0.225855 -0.135468 -0.14814 -0.215829 -0.336593 -0.100211 -0.142464 -99999 -0.24 -0.22888 -0.147318 -0.18875 -0.168163 -0.158407 -99999 -0.196091 -0.239297 -99999 -0.241163 -0.240909 -0.247423 -0.187108 -0.132051 -0.146667 -0.199639 -0.170478 -0.251963 -0.191859 -0.204852 -0.21565 -0.233455 -0.247905 -99999 -99999 -0.188585 -0.168421 -0.164436 -0.228018 -0.206023 -0.247024 -0.179254
23 -0.158857 -99999 -0.19244 -0.243488 -0.133889 -0.203276 -0.250376 -0.235719 -0.280395 -0.306944 -99999 -0.237077 -99999 -0.246553 -0.252519 -0.350667 -99999 -99999 -0.233515 -0.215141 -0.22114 -0.207692 -0.285581 -0.271927 -0.238914 -0.308681 -0.259647 -0.295205 -0.25965 -0.270842 -0.37274 -0.148519 -0.238582 -0.275392 -0.262637 -99999 -0.264194 -0.188025 -0.221979 -0.298913 -0.257126 -0.184792 -0.262769 -0.324867 -0.320698 -0.315513 -0.223435 -0.29093 -0.233134 -0.341953 -0.278806 -0.210664 -0.291071 -0.289369 -0.180866 -99999 -0.24026 -0.304355 -0.263358 -0.213448 -0.299731 -0.208891 -99999 -0.197573 -0.146095 -99999 -0.14806 -0.224104 -0.202539 -0.247049 -0.271311 -0.276378 -0.347325 -0.235785 -0.30799 -0.312694 -0.243009 -0.23994 -0.275 -0.229578 -99999 -99999 -0.231235 -0.328931 -0.167274 -0.240964 -0.286628 -0.254048 -0.216835
24 -0.179855 -99999 -0.2142 -0.238421 -0.196951 -0.286877 -0.329792 -0.23155 -0.22748 -0.246429 -99999 -0.37037 -99999 -0.274324 -0.280633 -0.260963 -0.229574 -99999 -0.245465 -0.213157 -0.191075 -0.166837 -0.29589 -0.252249 -0.242421 -0.210465 -0.234131 -0.207084 -0.269509 -0.21803 -0.380685 -0.264667 -0.20134 -0.186824 -0.23406 -99999 -99999 -0.322593 -0.209789 -0.133689 -0.175962 -0.25937 -0.258015 -0.275818 -0.337556 -0.197412 -0.187455 -0.288095 -0.284426 -0.299474 -0.245971 -0.271974 -0.326792 -0.236078 -0.185251 -99999 -0.265259 -0.318593 -0.298571 -0.228378 -0.23888 -0.265479 -99999 -0.27428 -0.259767 -99999 -0.254815 -0.233978 -0.230353 -0.255769 -0.211235 -0.200692 -0.282 -0.28581 -0.277638 -0.248947 -0.261203 -0.218668 -0.17466 -0.242224 -99999 -99999 -0.224683 -0.308219 -0.245815 -0.242707 -0.264291 -0.233353 -0.281863
25 -0.106883 -99999 -0.245622 -0.250435 -0.179841 -0.222981 -0.216063 -0.219457 -0.26482 -0.200588 -99999 -0.310732 -0.234516 -0.234884 -0.215765 -0.286761 -0.315238 -99999 -0.231516 -0.222567 -0.231525 -0.170154 -0.24375 -0.205666 -0.239261 -0.20584 -0.209028 -0.25311 -0.157392 -0.19071 -0.238533 -0.22988 -0.23802 -0.215896 -0.241705 -99999 -0.295581 -0.196 -0.238325 -0.24292 -0.235824 -0.217454 -0.162 -0.324074 -0.336789 -0.253626 -0.265654 -0.254615 -0.231979 -0.213598 -0.175149 -0.229204 -0.226667 -0.213629 -0.218996 -99999 -0.181781 -0.226341 -0.218767 -0.0828302 -0.203559 -0.234561 -99999 -0.234044 -0.272323 -99999 -0.214364 -0.207946 -0.314 -0.229562 -0.250076 -0.207791 -0.223222 -0.198276 -0.242926 -0.194346 -0.217687 -0.225165 -0.235323 -0.220433 -99999 -99999 -0.206636 -0.225172 -0.206081 -0.258663 -0.214022 -0.151264 -0.207083
26 -0.230896 -99999 -0.175196 -0.149155 -0.0616022 -0.185015 -0.145812 -0.200977 -0.0930769 -0.185067 -99999 -0.189143 -99999 -0.12995 -0.1392 -0.232876 -0.224286 -99999 -0.180677 -0.143426 -0.156875 -0.106188 -0.114687 -0.15036 -0.16564 -0.215783 -0.124492 -0.17289 -0.176443 -0.171818 -0.195974 -0.115165 -0.13806 -0.216504 -0.158548 -99999 -99999 -0.140977 -0.106082 -0.184472 -0.115785 -0.0620588 -0.0823841 -0.155926 -0.166875 -0.0861074 -0.160237 -0.122479 -0.222983 -0.212148 -0.132041 -0.186459 -0.185596 -0.234601 -0.238992 -99999 -0.230559 -0.095 -0.131758 -99999 -0.15173 -0.171347 -99999 -0.176483 -0.200104 -99999 -0.227836 -0.120868 -0.123299 -0.201873 -0.218517 -0.18758 -0.206821 -0.0574638 -0.14292 -0.138861 -0.115426 -0.140895 -0.119636 -0.159366 0.046 -99999 -0.125043 -0.216349 -0.122062 -0.152092 -0.130444 -0.13033 -0.19888
27 -0.140685 -99999 -0.252339 -0.232278 -0.296203 -0.258312 -0.268551 -0.2213 -0.287 -0.175037 -99999 -0.361233 -99999 -0.24906 -0.223926 -0.312735 -0.129556 -99999 -0.255288 -0.25014 -0.214 -0.21295 -0.293614 -0.274484 -0.273817 -0.331895 -0.271192 -0.266577 -0.236788 -0.280558 -0.325211 -0.292207 -0.234918 -0.311416 -0.268762 -99999 -99999 -0.347163 -0.239222 -0.331875 -0.24 -0.197542 -0.270157 -0.298485 -0.305446 -0.232083 -0.258111 -0.273333 -0.294768 -0.153558 -0.235862 -0.250496 -0.296852 -0.383772 -0.207778 -99999 -0.24415 -0.29 -0.228629 -0.3 -0.235946 -0.294608 -99999 -0.270729 -0.247838 -99999 -0.231195 -0.244595 -0.190245 -0.239173 -0.306446 -0.214853 -0.320253 -0.265887 -0.302457 -0.302842 -0.28167 -0.241906 -0.186752 -0.29008 -99999 -99999 -0.212335 -0.272703 -0.247002 -0.258875 -0.239378 -0.251457 -0.275286
28 -0.0783544 -99999 -0.17 -0.207647 -0.159259 -0.146757 -0.193434 -0.174 -0.138039 -0.194311 -99999 -0.192034 -0.0994444 -0.146266 -0.15949 -0.203333 -0.196122 -99999 -0.182378 -0.178323 -0.213628 -0.122913 -0.13503 -0.210736 -0.221338 -0.126923 -0.162652 -0.154046 -0.132316 -0.166694 -0.148 -0.18 -0.101841 -0.20782 -0.148284 -99999 -99999 -0.160194 -0.220642 -0.177593 -0.166169 -0.187166 -0.158421 -0.135962 -0.221959 -0.137486 -0.12156 -0.137048 -0.138468 -0.210678 -0.138015 -0.079064 -0.203333 -0.186855 -0.222893 -99999 -0.168955 -0.209412 -0.189801 -0.1875 -0.157877 -0.206956 -99999 -0.140674 -0.207056 -99999 -0.161152 -0.132174 -0.164021 -0.175299 -0.172286 -0.183642 -0.169608 -0.1652 -0.19767 -0.158488 -0.177435 -0.156691 -0.174952 -0.137338 -99999 -99999 -0.156414 -0.151231 -0.137295 -0.178513 -0.155592 -0.127249 -0.130135
29 -0.212927 -99999 -0.222038 -0.273778 -0.30711 -0.293508 -0.233133 -0.245224 -0.217465 -0.253613 -99999 -0.335714 -99999 -0.302452 -0.315392 -0.232676 -0.276087 -99999 -0.230884 -0.29014 -0.238452 -0.246526 -0.303486 -0.270279 -0.290759 -0.2964 -0.333482 -0.256266 -0.260604 -0.263007 -0.403671 -0.281443 -0.254957 -0.296828 -0.284249 -99999 -0.303953 -0.326168 -0.240374 -0.328125 -0.276406 -0.274054 -0.277823 -0.286529 -0.424231 -0.268625 -0.283207 -0.320563 -0.306084 -0.133253 -0.250858 -0.28357 -0.335225 -0.220339 -0.225124 -99999 -0.295309 -0.363778 -0.330156 -0.294746 -0.308324 -0.273503 -99999 -0.277755 -0.235714 -99999 -0.338699 -0.283689 -0.240178 -0.196591 -0.300541 -0.239139 -0.304754 -0.311057 -0.274454 -0.294167 -0.258253 -0.272357 -0.193107 -0.251945 -99999 -99999 -0.229267 -0.307372 -0.233249 -0.295987 -0.21358 -0.272514 -0.363087
30 -0.264595 0.37 -0.331748 -0.277273 -0.241685 -0.364952 -0.390903 -0.295516 -0.396883 -0.323049 -99999 -0.488983 -99999 -0.323192 -0.317362 -0.410523 -0.330299 -99999 -0.311397 -0.342831 -0.350451 -0.27114 -0.339794 -0.300982 -0.325847 -0.394522 -0.323518 -0.332175 -0.325 -0.285833 -0.327838 -0.300722 -0.290023 -0.240342 -0.262115 -99999 -99999 -0.27383 -0.311706 -0.232137 -0.307778 -0.340644 -0.341895 -0.287231 -0.310211 -0.293128 -0.277681 -0.218376 -0.31801 -0.358144 -0.29354 -0.304405 -0.259913 -0.326777 -0.286842 -99999 -0.320282 -0.361447 -0.314717 -0.230294 -0.297159 -0.343825 -99999 -0.347778 -0.318804 -99999 -0.38921 -0.326531 -0.282571 -0.341828 -0.25795 -0.297864 -0.38401 -0.2553 -0.285768 -0.306726 -0.320654 -0.306222 -0.302269 -0.272934 -99999 -99999 -0.308374 -0.196797 -0.277463 -0.316265 -0.311658 -0.288105 -0.3037
31 -0.256562 -99999 -0.15799 -0.178571 -0.0817333 -0.154314 -0.117327 -0.0782888 -0.175714 -0.106721 -99999 -0.201765 -99999 -0.144056 -0.183197 -0.264 -99999 -99999 -0.157186 -0.180099 -0.164396 -0.118945 -0.161912 -0.144733 -0.181078 -0.2125 -0.196237 -0.219549 -0.19529 -0.148282 -0.159677 -0.16872 -0.137917 -0.126609 -0.118786 -99999 -99999 -0.123333 -0.229545 -0.065 -0.10375 -0.206765 -0.12407 -0.141765 -0.193733 -0.16594 -0.116214 -0.240556 -0.155252 -0.142605 -0.168621 -0.198435 -0.258602 -0.142109 -0.190702 -0.114138 -0.285044 -0.143671 -0.123623 -99999 -0.156667 -0.222948 -99999 -0.214855 -0.207325 -99999 -0.121238 -0.127416 -0.123548 -0.134941 -0.195278 -0.19209 -0.252439 -0.144721 -0.155236 -0.115902 -0.156345 -0.188202 -0.15043 -0.153711 -99999 -99999 -0.113375 -0.125464 -0.193183 -0.18693 -0.114615 -0.198774 -0.120823
32 -0.478846 -99999 -0.362559 -0.471489 -0.335495 -0.392396 -0.367754 -0.453239 -0.34771 -0.407557 -99999 -0.496557 -99999 -0.369369 -0.364521 -0.377206 -0.334545 -99999 -0.404888 -0.352433 -0.310833 -0.402078 -0.42875 -0.397027 -0.455837 -0.485833 -0.387326 -0.425359 -0.320815 -0.354822 -0.462286 -0.406354 -0.397656 -0.425662 -0.368405 -99999 -99999 -0.416395 -0.459057 -0.396275 -0.337905 -0.42411 -0.340562 -0.437207 -0.383878 -0.335795 -0.40945 -0.544872 -0.325125 -0.382283 -0.366179 -0.412574 -0.348857 -0.441163 -0.410729 -99999 -0.481351 -0.462868 -0.35875 -0.4496 -0.415 -0.409156 -99999 -0.378528 -0.352654 -99999 -0.429934 -0.410622 -0.44352 -0.392448 -0.384343 -0.377073 -0.480651 -0.395682 -0.340204 -0.400728 -0.407633 -0.410039 -0.445281 -0.431692 -99999 -99999 -0.450591 -0.433688 -0.340459 -0.456364 -0.358884 -0.294667 -0.32969
33 -0.105429 -99999 -0.174219 -0.195217 -0.177081 -0.245754 -0.244865 -0.217875 -0.216299 -0.240573 -99999 -0.260933 -99999 -0.227522 -0.220918 -0.313421 -0.3996 -99999 -0.209246 -0.198894 -0.186041 -0.179451 -0.235325 -0.190727 -0.204081 -0.159903 -0.205283 -0.222779 -0.211728 -0.208313 -0.356988 -0.207546 -0.215182 -0.215039 -0.147809 -99999 -99999 -0.190994 -0.182959 -0.349667 -0.190492 -0.17087 -0.152983 -0.197107 -0.248163 -0.330808 -0.196186 -0.189038 -0.235028 -0.167919 -0.148423 -0.182098 -0.145614 -0.233013 -0.145122 -99999 -0.216358 -0.165775 -0.214128 -0.284754 -0.187408 -0.177692 -99999 -0.194514 -0.226481 -99999 -0.191408 -0.211127 -0.0762312 -0.241139 -0.259185 -0.184767 -0.208057 -0.148849 -0.0988372 -0.173762 -0.195084 -0.170846 -0.2112 -0.139136 -99999 -99999 -0.18802 -0.15176 -0.171847 -0.21621 -0.123295 -0.161392 -0.244189
34 -0.208592 -99999 -0.0803929 -0.144684 -0.127065 -0.10659 -0.171496 -0.133443 -0.210968 -0.154311 -0.025625 -0.11058 -99999 -0.182138 -0.158578 -0.0462821 -0.163448 -99999 -0.103996 -0.103968 -0.115356 -0.100236 -0.204286 -0.193 -0.090765 -0.198376 -0.16001 -0.167884 -0.108105 -0.130713 -0.0656098 -0.247174 -0.152088 -0.0927425 -0.120112 -99999 -0.203571 -0.128413 -0.169273 -0.246637 -0.0558462 -0.151463 -0.171733 -0.246275 -0.193564 -0.130357 -0.121965 -0.106774 -0.169507 -0.0555102 -0.133392 -0.110591 -0.235138 -0.145582 -0.190069 -99999 -0.256629 -0.0891176 -0.111443 -0.0596429 -0.128038 -0.093587 -99999 -0.168813 -0.158544 -99999 -0.109779 -0.146142 -0.0570093 -0.113611 -0.0566899 -0.119457 -0.191006 -0.152166 -0.136992 -0.234283 -0.153062 -0.156421 -0.178689 -0.158436 -99999 -99999 -0.0967465 -0.143939 -0.0950183 -0.0981931 -0.0738944 -0.127912 -0.0879553
35 -0.18831 -99999 -0.258258 -0.242778 -0.274686 -0.222744 -0.292371 -0.197904 -0.331667 -0.24619 -99999 -0.101304 -99999 -0.242751 -0.298458 -0.285033 -0.272745 -99999 -0.242642 -0.219159 -0.267956 -0.217591 -0.219796 -0.252557 -0.260047 -0.240407 -0.258911 -0.237026 -0.271661 -0.261085 -0.391026 -0.285833 -0.243879 -0.313158 -0.216893 -99999 -0.437742 -0.291707 -0.215592 -0.160569 -0.24126 -0.318085 -0.232585 -0.211639 -0.242 -0.300471 -0.2614 -0.185714 -0.260904 -0.310656 -0.239237 -0.234615 -0.263913 -0.265064 -0.239647 -99999 -0.319867 -0.287083 -0.294669 -0.368298 -0.26028 -0.260018 -99999 -0.285766 -0.183717 -99999 -0.268605 -0.231569 -0.204667 -0.267255 -0.290283 -0.205508 -0.24006 -0.298882 -0.313948 -0.260328 -0.266742 -0.235451 -0.30626 -0.237414 -99999 -99999 -0.239131 -0.278824 -0.310159 -0.307072 -0.196403 -0.303508 -0.279169
36 -0.23907 -99999 -0.245121 -0.234 -0.307814 -0.286011 -0.203481 -0.267677 -0.312446 -0.315856 -99999 -0.28 -99999 -0.262374 -0.258883 -0.279536 -0.2944 -99999 -0.243431 -0.207855 -0.260152 -0.230977 -0.28326 -0.246676 -0.228904 -0.143805 -0.265708 -0.279613 -0.259266 -0.24453 -0.353434 -0.256329 -0.262182 -0.316801 -0.255955 -99999 -99999 -0.25239 -0.270351 -0.234228 -0.256879 -0.265564 -0.250059 -0.300407 -0.251217 -0.176772 -0.236382 -0.208261 -0.268402 -0.387011 -0.178672 -0.226265 -0.304035 -0.252276 -0.26019 -99999 -0.288025 -0.281944 -0.330621 -0.217018 -0.277343 -0.24062 -99999 -0.295957 -0.290099 -99999 -0.217542 -0.252593 -0.227766 -0.193938 -0.1929 -0.184629 -0.227158 -0.224943 -0.278841 -0.200375 -0.239323 -0.276294 -0.244173 -0.235695 -99999 -99999 -0.300497 -0.240442 -0.246397 -0.231473 -0.188285 -0.255287 -0.22838
37 -0.188 -99999 -0.167921 -0.1886 -0.175529 -0.17384 -0.171003 -0.231338 -0.180833 -0.157974 -99999 -0.120508 -99999 -0.147341 -0.192327 -0.207571 -0.353636 -99999 -0.202379 -0.185611 -0.213798 -0.165326 -0.197475 -0.153399 -0.21916 -0.302712 -0.20967 -0.214617 -0.188627 -0.194415 -0.147368 -0.240374 -0.173484 -0.243953 -0.214797 -99999 -0.231333 -0.0996175 -0.198667 -0.319091 -0.238794 -0.192759 -0.197768 -0.0972566 -0.183874 -0.168251 -0.209048 -0.246026 -0.173802 -0.128866 -0.13563 -0.210574 -0.296557 -0.22722 -0.219852 -99999 -0.200233 -0.221034 -0.156207 -0.33 -0.207256 -0.223157 -99999 -0.208768 -0.194959 -99999 -0.137278 -0.153305 -0.0986869 -0.18619 -0.201544 -0.272697 -0.170442 -0.220325 -0.256308 -0.181068 -0.181952 -0.21361 -0.0597345 -0.204721 -99999 -99999 -0.208569 -0.15637 -0.146241 -0.193082 -0.199251 -0.250753 -0.193014
38 -0.423659 -99999 -0.32273 -0.422644 -0.415263 -0.423399 -0.37462 -0.38471 -0.388095 -0.336024 -99999 -0.361 -99999 -0.347277 -0.3911 -0.403491 -0.38746 -99999 -0.363333 -0.366236 -0.371459 -0.356189 -0.350316 -0.337557 -0.37583 -0.327099 -0.371358 -0.346479 -0.378373 -0.359149 -0.2244 -0.360357 -0.319721 -0.421605 -0.384897 -99999 -99999 -0.434583 -0.357477 -0.335546 -0.342256 -0.381429 -0.37087 -0.403435 -0.371404 -0.324332 -0.335253 -0.344189 -0.311454 -0.364917 -0.293188 -0.378219 -0.405966 -0.422797 -0.348571 -99999 -0.278663 -0.253822 -0.372803 -0.282812 -0.383369 -0.31409 -99999 -0.38741 -0.403529 -99999 -0.314028 -0.409917 -0.3149 -0.330721 -0.384 -0.296982 -0.382 -0.305032 -0.388521 -0.398176 -0.370561 -0.381974 -0.372282 -0.408689 -99999 -99999 -0.4222 -0.43719 -0.323981 -0.35737 -0.359576 -0.329526 -0.307808
39 -0.304722 -0.15 -0.230828 -0.304757 -0.251458 -0.295445 -0.191807 -0.291495 -0.277407 -0.301364 -99999 -0.250727 -99999 -0.245208 -0.236714 -0.265338 -99999 -99999 -0.254452 -0.284289 -0.254558 -0.226749 -0.270488 -0.22384 -0.259434 -0.18434 -0.282085 -0.279358 -0.245127 -0.265477 -0.261358 -0.280225 -0.243171 -0.177472 -0.250155 -99999 -99999 -0.316509 -0.21973 -0.289687 -0.305097 -0.326314 -0.234724 -0.176783 -0.279369 -0.292754 -0.256136 -0.211618 -0.312842 -0.291405 -0.263081 -0.233 -0.195 -0.223796 -0.236868 -99999 -0.28047 -0.225 -0.268902 -0.313333 -0.263557 -0.29453 -99999 -0.249051 -0.241549 -99999 -0.28229 -0.138333 -0.31763 -0.253636 -0.306467 -0.309503 -0.287303 -0.241761 -0.201159 -0.20806 -0.28412 -0.23372 -0.256667 -0.233104 -99999 -99999 -0.211308 -0.419023 -0.220838 -0.28331 -0.263034 -0.24734 -0.221259
40 -0.42619 -99999 -0.167608 -0.190323 -0.172133 -0.125724 -0.183248 -0.181429 -0.291157 -0.200075 -99999 -99999 -99999 -0.125215 -0.214678 -0.200847 -99999 -99999 -0.199986 -0.199506 -0.168161 -0.147443 -0.150629 -0.190941 -0.214591 -0.238936 -0.24342 -0.193634 -0.170702 -0.186721 -0.192105 -0.225143 -0.196313 -0.186016 -0.290429 -99999 -0.2075 -0.265211 -0.145569 0.0157692 -0.226716 -0.199789 -0.184205 -0.240973 -0.286782 -0.178758 -0.237325 -0.188058 -0.165621 -0.231806 -0.194292 -0.143432 -0.207183 -0.219347 -0.22807 -99999 -0.157931 -0.324545 -0.192185 -99999 -0.172961 -0.173627 -99999 -0.252759 -0.184286 -99999 -0.146224 -0.172938 -0.22 -0.159199 -0.0990155 -0.174056 -0.0949635 -0.134706 -0.157135 -0.079441 -0.206266 -0.189828 -0.376061 -0.182923 -99999 -99999 -0.191269 -0.217667 -0.0945658 -0.165153 -0.158008 -0.144247 -0.149633
41 -0.260115 -99999 -0.377266 -0.312626 -0.283376 -0.341927 -0.390418 -0.371513 -0.429091 -0.391143 -99999 -99999 -99999 -0.391953 -0.363932 -0.278456 -0.308667 -99999 -0.339908 -0.365976 -0.242338 -0.316048 -0.353315 -0.378424 -0.339757 -0.326807 -0.362113 -0.39713 -0.367042 -0.333764 -0.30037 -0.378851 -0.331911 -0.40274 -0.332629 -99999 -99999 -0.321235 -0.348079 -0.44405 -0.381261 -0.328434 -0.420381 -0.344312 -0.349658 -0.39659 -0.339458 -0.243554 -0.297989 -0.427889 -0.269808 -0.255035 -0.30098 -0.358559 -0.307546 -99999 -0.38283 -0.345 -0.417703 -0.335263 -0.35699 -0.379295 -99999 -0.35509 -0.414327 -99999 -0.408762 -0.314336 -0.361399 -0.40982 -0.343614 -0.299317 -0.456957 -0.347855 -0.326082 -0.296557 -0.40781 -0.337313 -0.319606 -0.328516 -99999 -99999 -0.310886 -0.356667 -0.321767 -0.350135 -0.29781 -0.334519 -0.342197
42 -0.4225 -99999 -0.288411 -0.358936 -0.196111 -0.288237 -0.390136 -0.276859 -0.411154 -0.37 -99999 -0.322647 -99999 -0.302134 -0.317066 -0.3375 -0.34814 -99999 -0.328744 -0.299028 -0.302018 -0.277805 -0.362203 -0.267029 -0.301838 -0.366731 -0.330384 -0.305242 -0.348846 -0.28904 -0.262967 -0.354659 -0.298448 -0.297782 -0.324514 -99999 -99999 -0.303865 -0.3 -0.334727 -0.301702 -0.213344 -0.371678 -0.297273 -0.225818 -0.240706 -0.31088 -0.290612 -0.287394 -0.364096 -0.302946 -0.281607 -0.464336 -0.245197 -0.333938 -99999 -0.289189 -0.25543 -0.298582 -0.21 -0.317183 -0.356733 -99999 -0.315562 -0.365932 -99999 -0.31233 -0.255339 -0.323936 -0.347892 -0.281661 -0.25931 -0.3325 -0.307838 -0.266432 -0.289048 -0.272552 -0.249566 -0.332185 -0.339288 -99999 -99999 -0.262803 -0.304369 -0.28486 -0.32081 -0.302118 -0.304687 -0.28309
43 -0.185455 -99999 -0.349122 -0.302708 -0.319016 -0.388308 -0.343506 -0.375509 -0.36903 -0.3275 -99999 -0.294 -99999 -0.389664 -0.329868 -0.396163 -0.219333 -99999 -0.334661 -0.321009 -0.349841 -0.290934 -0.426966 -0.357675 -0.323077 -0.367879 -0.330117 -0.372162 -0.330252 -0.310019 -0.3675 -0.218936 -0.282537 -0.372645 -0.285058 -99999 -99999 -0.366087 -0.330282 -0.420154 -0.354494 -0.330909 -0.308541 -0.341961 -0.281597 -0.365027 -0.360387 -0.296806 -0.333474 -0.339948 -0.317115 -0.262854 -0.386714 -0.361268 -0.295404 -99999 -0.387931 -0.434914 -0.308133 -0.304921 -0.344069 -0.351133 -99999 -0.338114 -0.400242 -99999 -0.361509 -0.337954 -0.338683 -0.338595 -0.334181 -0.37659 -0.394103 -0.351667 -0.311774 -0.352799 -0.358817 -0.290423 -0.308493 -0.294124 -99999 -99999 -0.334052 -0.38541 -0.27366 -0.270979 -0.277939 -0.357647 -0.269159
44 -0.0549351 -99999 -0.214014 -0.286505 -0.209235 -0.15573 -0.216873 -0.206957 -0.165493 -0.154969 -99999 -0.361875 -99999 -0.188087 -0.184419 -0.130252 -0.0719231 -99999 -0.158887 -0.194317 -0.247321 -0.19227 -0.228152 -0.196958 -0.147832 -0.379038 -0.209239 -0.204693 -0.212576 -0.198317 -0.120952 -0.168278 -0.150044 -0.179139 -0.192094 -99999 -99999 -0.152517 -0.191682 -0.212143 -0.264386 -0.186164 -0.185375 -0.0975229 -0.212185 -0.0850562 -0.170512 -0.240216 -0.169756 -0.253542 -0.151734 -0.12896 -0.220385 -0.197721 -0.186941 -99999 -0.251646 -0.187405 -0.227338 -0.365745 -0.169897 -0.170167 -99999 -0.196738 -0.164273 -99999 -0.213007 -0.197538 -0.159548 -0.237891 -0.195878 -0.163559 -0.197958 -0.191745 -0.180348 -0.14819 -0.165675 -0.16598 -0.172553 -0.200584 -99999 -99999 -0.193942 -0.231286 -0.16782 -0.149074 -0.148336 -0.172312 -0.154398
45 -0.212286 -99999 -0.293556 -0.259024 -0.181429 -0.283315 -0.281661 -0.259481 -0.29596 -0.380118 -99999 -0.395397 -99999 -0.291012 -0.318831 -0.265484 -0.279118 -99999 -0.260576 -0.23795 -0.296376 -0.243281 -0.209426 -0.297704 -0.347823 -0.396727 -0.298079 -0.308975 -0.268265 -0.2688 -0.172857 -0.254857 -0.314382 -0.291041 -0.271097 -99999 -99999 -0.298571 -0.270255 -0.382833 -0.326707 -0.309571 -0.297492 -0.30431 -0.236379 -0.300482 -0.284242 -0.218571 -0.301513 -0.160556 -0.317556 -0.273305 -0.334667 -0.302712 -0.298377 -99999 -0.26773 -0.311286 -0.266258 -0.326765 -0.299269 -0.316455 -99999 -0.317266 -0.351743 -99999 -0.333158 -0.290803 -0.382035 -0.274916 -0.314695 -0.354778 -0.35069 -0.321333 -0.269649 -0.279751 -0.321231 -0.282816 -0.359919 -0.290902 -99999 -99999 -0.296625 -0.325556 -0.277361 -0.272899 -0.226417 -0.37039 -0.297248
46 -0.388305 -99999 -0.383644 -0.508476 -0.367079 -0.311662 -0.427914 -0.357265 -0.31359 -0.357922 -99999 -0.331111 -99999 -0.389574 -0.383656 -0.367391 -0.480435 -99999 -0.388259 -0.334659 -0.351429 -0.306152 -0.439856 -0.382922 -0.41329 -0.387368 -0.414144 -0.401734 -0.371846 -0.391696 -0.387647 -0.325465 -0.363259 -0.355108 -0.383003 -99999 -99999 -0.403494 -0.282947 -0.414138 -0.363846 -0.424234 -0.288812 -0.436783 -0.375773 -0.329627 -0.378612 -0.408609 -0.358684 -0.442649 -0.330264 -0.347883 -0.310388 -0.4244 -0.382992 -99999 -0.344366 -0.387903 -0.380701 -0.333922 -0.37379 -0.417068 -99999 -0.378729 -0.430935 -99999 -0.392189 -0.399048 -0.329679 -0.377217 -0.373509 -0.353034 -0.429146 -0.338375 -0.401842 -0.432462 -0.313327 -0.325243 -0.342941 -0.374373 -99999 -99999 -0.381567 -0.402605 -0.415317 -0.394891 -0.380653 -0.393152 -0.339537
47 -0.104194 -99999 -0.117599 -0.105368 -0.120312 -0.0675309 -0.122613 -0.115824 -0.0577778 -0.0753125 -99999 -0.0591139 -99999 -0.0873016 -0.103021 -0.0929189 -0.0731579 -99999 -0.0884478 -0.0624796 -0.0727948 -0.0564278 -0.0386061 -0.0828761 -0.0807692 -0.117059 -0.108812 -0.129416 -0.0329052 -0.044965 -0.156875 -0.0505435 -0.0397365 0.0165517 -0.00324074 -99999 -99999 -0.0933898 -0.0466809 -0.146364 -0.0848966 -0.137143 -0.0912353 -0.0884615 -0.0929703 -0.121562 -0.0714914 -0.0549275 -0.0969211 -0.132804 -0.0991773 -0.12392 -0.0774074 -0.150873 -0.183944 -0.0995455 -0.106962 -0.0555629 -0.0969091 -0.119118 -0.094351 -0.13 -99999 -0.0728076 -0.113367 -99999 -0.0999694 -0.0501709 -0.0233333 -0.0543621 -0.0284138 -0.0450877 -0.126364 -0.0665636 -0.153882 -0.0569302 -0.152781 -0.098057 -0.0738333 -0.115307 -99999 -99999 -0.0824558 -0.141409 -0.0646737 -0.134275 -0.118793 -0.0955446 -0.126701
48 -0.504074 -99999 -0.346424 -0.35 -0.433017 -0.412291 -0.401667 -0.32729 -0.420922 -0.382154 -99999 -0.487722 -99999 -0.405409 -0.443932 -0.282919 -0.547647 -99999 -0.39837 -0.384648 -0.346511 -0.366889 -0.412674 -0.454611 -0.413475 -0.386514 -0.4003 -0.426432 -0.361489 -0.413992 -0.343253 -0.451491 -0.39277 -0.373284 -0.37148 -99999 -0.0409091 -0.349281 -0.454 -0.42935 -0.381654 -0.412397 -0.426333 -0.286607 -0.495918 -0.353864 -0.418134 -0.411636 -0.361556 -0.384194 -0.378678 -0.348651 -0.372883 -0.302808 -0.428145 -99999 -0.412078 -0.305115 -0.383655 -0.397442 -0.338845 -0.432554 -99999 -0.451062 -0.428261 -99999 -0.325306 -0.426214 -0.387143 -0.391371 -0.385231 -0.281139 -0.482579 -0.438938 -0.476099 -0.409556 -0.41298 -0.395549 -0.427407 -0.369207 -99999 -99999 -0.383531 -0.296667 -0.399271 -0.409109 -0.385791 -0.318247 -0.42291
49 -0.286812 -99999 -0.242629 -0.290465 -0.204253 -0.265714 -0.26058 -0.231753 -0.417143 -0.301831 -99999 -0.250328 -99999 -0.308044 -0.261823 -0.389213 -0.203878 -99999 -0.270936 -0.247961 -0.246223 -0.251529 -0.198571 -0.298942 -0.267892 -0.2478 -0.305 -0.28026 -0.297556 -0.263912 -0.215352 -0.283878 -0.26596 -0.294 -0.266677 -99999 -0.114138 -0.0838182 -0.257938 -0.316239 -0.21137 -0.308864 -0.251507 -0.237667 -0.298736 -0.272614 -0.308653 -0.200312 -0.309067 -0.34967 -0.226063 -0.233557 -0.422389 -0.327438 -0.316154 -99999 -0.266364 -0.338889 -0.270756 -0.226667 -0.292896 -0.276394 -99999 -0.301381 -0.286355 -99999 -0.276468 -0.257911 -0.276103 -0.289116 -0.306541 -0.299359 -0.262199 -0.239789 -0.295321 -0.296587 -0.263601 -0.334717 -0.273492 -0.263359 -99999 -99999 -0.304773 -0.299825 -0.291921 -0.299617 -0.300983 -0.309722 -0.282091
50 -0.0614286 -99999 -0.102505 -0.144792 -0.0607027 -0.107705 -0.158843 -0.0848106 -0.0961438 -0.103054 -99999 -0.21806 -99999 -0.0719221 -0.08355 0.0382432 -99999 -99999 -0.0778222 -0.118107 -0.144672 -0.0546765 -0.147219 -0.0885195 -0.110388 -0.0935398 -0.112948 -0.128136 -0.0909412 -0.0862145 -0.101807 -0.190578 -0.115533 -0.128395 -0.0631783 -99999 0.0503922 -0.121765 -0.116667 -0.0684733 -0.114461 -0.147474 -0.102848 -0.0535398 -0.0426126 -0.0779042 -0.0740074 -0.0985496 -0.0284896 -0.0788398 -0.09 -0.0524889 -0.161 -0.108938 -0.155812 -99999 -0.103836 -0.223684 -0.142583 -0.174533 -0.0813684 -0.106579 -99999 -0.109742 -0.152455 -99999 -0.0737584 -0.102249 -0.0604663 -0.0760465 -0.0692395 -0.164756 -0.166706 -0.0386545 -0.102946 -0.124157 -0.0545217 -0.0919048 -0.119811 -0.115063 -99999 -99999 -0.0683174 -0.0625926 -0.0754442 -0.126978 -0.0500328 -0.149471 -0.0824542
51 -0.105 0.05 -0.239401 -0.277692 -0.318323 -0.216846 -0.294444 -0.206915 -0.243901 -0.292987 -99999 -0.226667 -99999 -0.248467 -0.286748 -0.284304 -0.238837 -99999 -0.248739 -0.269371 -0.295882 -0.209796 -0.309158 -0.2934 -0.245245 -0.352655 -0.322143 -0.280781 -0.28192 -0.253983 -0.304203 -0.255443 -0.264702 -0.274314 -0.224415 -99999 -0.306444 -0.304079 -0.341921 -0.173186 -0.231544 -0.331775 -0.230712 -0.260175 -0.249245 -0.274845 -0.257559 -0.218874 -0.266124 -0.276104 -0.301373 -0.285417 -0.255891 -0.361091 -0.255483 -99999 -0.261696 -0.371468 -0.205488 -0.299474 -0.290149 -0.32029 -99999 -0.263798 -0.300213 -99999 -0.275419 -0.248082 -0.169641 -0.247175 -0.279273 -0.201494 -0.292827 -0.2076 -0.278711 -0.311274 -0.281272 -0.262139 -0.312537 -0.245268 -99999 -99999 -0.240097 -0.230274 -0.230909 -0.231413 -0.254075 -0.275592 -0.209481
52 -0.0743077 -99999 -0.130968 -0.202927 -0.157302 -0.103729 -0.141408 -0.130738 -0.146308 -0.0870886 -99999 -0.176988 -99999 -0.106931 -0.168142 -0.128701 -0.10907 -0.117368 -0.122403 -0.148443 -0.167282 -0.116241 -0.112273 -0.133011 -0.178487 -0.159298 -0.162534 -0.12975 -0.130847 -0.120142 -0.188529 -0.147416 -0.155961 -0.209518 -0.146346 -99999 -0.097907 -0.123375 -0.151279 -0.170952 -0.154403 -0.155317 -0.0890572 -0.165798 -0.126964 -0.155158 -0.170898 -0.108824 -0.16093 -0.0762222 -0.123942 -0.097041 -0.207368 -0.219815 -0.0692562 -99999 -0.173497 -0.295714 -0.12358 -0.181852 -0.139768 -0.132816 -99999 -0.150886 -0.111273 -99999 -0.157692 -0.1479 -0.118962 -0.15099 -0.0585512 -0.134928 -0.131911 -0.173422 -0.129291 -0.121709 -0.0945122 -0.137913 -0.20376 -0.117857 -99999 -99999 -0.173966 -0.144085 -0.175691 -0.131461 -0.161226 -0.222727 -0.22509
53 -0.328873 -0.222 -0.326536 -0.387241 -0.3964 -0.389348 -0.381065 -0.329356 -0.278217 -0.372375 -99999 -0.398108 -99999 -0.330827 -0.362552 -0.321647 -0.25766 -99999 -0.319574 -0.314695 -0.383607 -0.309019 -0.38341 -0.386095 -0.412837 -0.44 -0.395374 -0.407977 -0.309311 -0.280639 -0.462667 -0.413607 -0.3251 -0.319831 -0.30441 -99999 -0.243488 -0.295181 -0.32299 -0.330901 -0.359771 -0.355017 -0.35086 -0.488151 -0.4436 -0.301698 -0.333882 -0.353407 -0.365462 -0.284773 -0.341566 -0.398009 -0.365294 -0.404009 -0.375641 -0.416 -0.306601 -0.42322 -0.32873 -0.268039 -0.398778 -0.319002 -99999 -0.34988 -0.428632 -0.208537 -0.374931 -0.399128 -0.356766 -0.368321 -0.408106 -0.367241 -0.42975 -0.367032 -0.418273 -0.359356 -0.308632 -0.355996 -0.312362 -0.377919 -99999 -99999 -0.37438 -0.331053 -0.329115 -0.341119 -0.304865 -0.313548 -0.361541
54 -0.27597 -99999 -0.367143 -0.395217 -0.396277 -0.335859 -0.405841 -0.366853 -0.33848 -0.358025 -99999 -0.410377 -0.267949 -0.352765 -0.386377 -0.285944 -0.312909 -99999 -0.376024 -0.356409 -0.336905 -0.329769 -0.31023 -0.351357 -0.393111 -0.405179 -0.373978 -0.353553 -0.343652 -0.348315 -0.4292 -0.369884 -0.370246 -0.362567 -0.352165 -99999 -0.337143 -0.323418 -0.302959 -0.393186 -0.323768 -0.379933 -0.318391 -0.55016 -0.332532 -0.231618 -0.389522 -0.457023 -0.369274 -0.248922 -0.345097 -0.356619 -0.518571 -0.357911 -0.371441 -99999 -0.416506 -0.41288 -0.378185 -0.445882 -0.388252 -0.373629 -99999 -0.301479 -0.360259 -99999 -0.331382 -0.308 -0.318824 -0.34453 -0.31701 -0.359157 -0.328989 -0.310565 -0.354464 -0.321537 -0.387923 -0.405568 -0.439078 -0.368696 -99999 -99999 -0.35978 -0.362061 -0.336871 -0.327858 -0.333986 -0.457604 -0.323773
55 -0.158286 -99999 -0.164484 -0.366418 -0.169503 -0.192112 -0.19807 -0.166808 -0.20068 -0.246061 -99999 -0.248776 -99999 -0.166965 -0.1845 -0.241057 -99999 -99999 -0.205314 -0.163407 -0.290894 -0.180167 -0.193893 -0.205679 -0.180277 -0.238 -0.235755 -0.21852 -0.184092 -0.165655 -0.263437 -0.294427 -0.187246 -0.108378 -0.149503 -99999 -99999 -0.230845 -0.164463 -0.1768 -0.227143 -0.149187 -0.248353 -0.150659 -0.213364 -0.10507 -0.242415 -0.150909 -0.248981 -0.191579 -0.175575 -0.176117 -0.224815 -0.216537 -0.273439 -99999 -0.212276 -0.191207 -0.22681 -0.3728 -0.185826 -0.228391 -99999 -0.189351 -0.235 -99999 -0.250945 -0.101827 -0.138056 -0.174404 -0.140711 -0.148194 -0.2125 -0.201624 -0.146154 -0.167118 -0.191266 -0.161116 -0.243217 -0.193977 -99999 -99999 -0.155831 -0.1058 -0.153048 -0.173314 -0.143502 -0.139186 -0.155523
56 -0.295278 -99999 -0.215061 -0.208313 -0.257473 -0.263397 -0.170892 -0.183275 -0.146058 -0.200563 -99999 -0.227812 -99999 -0.203315 -0.24328 -0.181364 -99999 -99999 -0.178615 -0.230048 -0.176355 -0.194357 -0.197333 -0.196621 -0.230055 -0.352947 -0.208976 -0.275147 -0.248756 -0.185207 -0.259375 -0.154503 -0.225439 -0.250903 -0.207628 -99999 -99999 -0.224714 -0.22559 -0.262 -0.164698 -0.193796 -0.19078 -0.329619 -0.229059 -0.254385 -0.212236 -0.282696 -0.247409 -0.319809 -0.235439 -0.255576 -0.293556 -0.264136 -0.296307 -99999 -0.280196 -0.320826 -0.301203 -99999 -0.209797 -0.242844 -99999 -0.248955 -0.242421 -0.0874194 -0.323004 -0.211176 -0.214022 -0.194254 -0.249338 -0.194625 -0.247821 -0.25 -0.197182 -0.255039 -0.205041 -0.186305 -0.184 -0.256713 -99999 -99999 -0.209607 -0.107258 -0.2063 -0.25831 -0.210465 -0.193699 -0.147745
57 -0.178214 -99999 -0.33646 -0.273 -0.359921 -0.358949 -0.297429 -0.345448 -0.285385 -0.272703 -99999 -0.270417 -99999 -0.376166 -0.290576 -0.332361 -99999 -99999 -0.259553 -0.243868 -0.331118 -0.272853 -0.28039 -0.345371 -0.312741 -0.317073 -0.325325 -0.287818 -0.287224 -0.284535 -0.414776 -0.383968 -0.322947 -0.355069 -0.34669 -99999 -99999 -0.29597 -0.309549 -0.319462 -0.28507 -0.230628 -0.36917 -0.3392 -0.344872 -0.383429 -0.295737 -0.256667 -0.230684 -0.300548 -0.23053 -0.322775 -0.320291 -0.306612 -0.322391 -99999 -0.352909 -0.24964 -0.24934 -99999 -0.2786 -0.325071 -99999 -0.307995 -0.313616 -99999 -0.269091 -0.302653 -0.261622 -0.304557 -0.362661 -0.271391 -0.307887 -0.278374 -0.320798 -0.298246 -0.362078 -0.282517 -0.287714 -0.242194 -99999 -99999 -0.258557 -0.27 -0.249303 -0.299976 -0.34645 -0.299922 -0.202488
58 -0.102308 -99999 -0.237018 -0.292955 -0.282715 -0.369502 -0.332844 -0.303518 -0.349322 -0.314964 -99999 -0.340612 -99999 -0.251898 -0.273477 -0.34 -0.406279 -99999 -0.304588 -0.280238 -0.2425 -0.257141 -0.473433 -0.263376 -0.343903 -0.31268 -0.304628 -0.335804 -0.297782 -0.305851 -0.334167 -0.431655 -0.276361 -0.292313 -0.24073 -99999 -99999 -0.304265 -0.303765 -0.317912 -0.319474 -0.270323 -0.26229 -0.320682 -0.338571 -0.258516 -0.252201 -0.333 -0.309653 -0.322129 -0.252512 -0.29339 -0.36033 -0.300846 -0.327689 -99999 -0.225447 -0.223396 -0.323276 -0.398621 -0.33479 -0.336995 -99999 -0.365033 -0.314896 -99999 -0.346774 -0.288728 -0.367923 -0.297527 -0.206733 -0.195758 -0.359483 -0.189918 -0.330545 -0.267189 -0.275081 -0.346 -0.215532 -0.284274 -99999 -99999 -0.330307 -0.288969 -0.315661 -0.280568 -0.283319 -0.372464 -0.279218
59 -0.116774 -99999 -0.174458 -0.214681 -0.159944 -0.162887 -0.190576 -0.178531 -0.27 -0.202647 -99999 -0.26831 -99999 -0.224062 -0.228915 -0.183243 -0.195106 -99999 -0.2142 -0.194551 -0.207553 -0.158136 -0.203886 -0.198828 -0.22622 -0.265315 -0.195639 -0.205136 -0.149838 -0.183448 -0.157895 -0.22411 -0.197972 -0.229302 -0.179737 -99999 -99999 -0.165444 -0.189615 -0.0903738 -0.209277 -0.195517 -0.20522 -0.0935385 -0.128571 -0.223039 -0.21058 -0.174538 -0.186827 -0.226939 -0.180215 -0.161563 -0.28371 -0.278392 -0.264348 -99999 -0.110994 -0.217481 -0.176035 -0.206889 -0.203037 -0.263321 -99999 -0.168761 -0.186075 -99999 -0.231522 -0.143534 -0.252842 -0.208797 -0.147681 -0.184413 -0.327231 -0.181151 -0.0822388 -0.249062 -0.222513 -0.178832 -0.202187 -0.166717 -99999 -99999 -0.220383 -0.171353 -0.136851 -0.169565 -0.168132 -0.205474 -0.210623
60 -0.128718 -99999 -0.206588 -0.164937 -0.239123 -0.166333 -0.232526 -0.226817 -0.156 -0.176667 -99999 -0.223333 -99999 -0.165783 -0.213428 -0.153636 -0.144237 -99999 -0.194499 -0.176203 -0.201091 -0.174699 -0.204749 -0.208656 -0.225784 -0.326396 -0.200944 -0.230363 -0.169743 -0.153857 -0.274407 -0.294551 -0.186536 -0.173008 -0.152271 -99999 -99999 -0.211146 -0.158762 -0.15063 -0.194553 -0.151387 -0.154525 -0.193717 -0.226283 -0.229509 -0.115037 -0.226852 -0.213228 -0.203793 -0.178229 -0.161054 -0.193922 -0.191751 -0.205219 -0.237429 -0.176788 -0.237119 -0.24071 -99999 -0.220354 -0.220747 -99999 -0.219545 -0.182523 -99999 -0.22958 -0.202151 -0.170622 -0.197815 -0.128587 -0.22 -0.266069 -0.169066 -0.254261 -0.224677 -0.201833 -0.234474 -0.156957 -0.155308 -99999 -99999 -0.168645 -0.163381 -0.157943 -0.171351 -0.150391 -0.154188 -0.297472
61 -0.162 -99999 -0.205543 -0.215294 -0.238939 -0.163418 -0.118382 -0.154992 -0.163289 -0.180204 -99999 -0.272571 -99999 -0.18523 -0.197199 -0.233758 -0.123929 -99999 -0.224887 -0.148915 -0.193707 -0.133953 -0.178736 -0.164109 -0.199927 -0.32045 -0.235495 -0.211333 -0.1406 -0.171331 -0.244528 -0.202045 -0.169655 -0.210955 -0.160954 -99999 -99999 -0.227696 -0.219187 -0.217 -0.175606 -0.180395 -0.200181 -0.18703 -0.162727 -0.231758 -0.179052 -0.148981 -0.195664 -0.157192 -0.200599 -0.203024 -0.152281 -0.183154 -0.232555 -99999 -0.143452 -0.20488 -0.155329 -0.0543333 -0.164539 -0.189022 -99999 -0.177416 -0.222961 -99999 -0.184983 -0.125288 -0.127268 -0.164891 -0.216294 -0.100795 -0.198308 -0.177468 -0.144964 -0.192025 -0.163769 -0.183067 -0.176774 -0.186824 -99999 -99999 -0.169965 -0.159764 -0.167706 -0.195179 -0.195858 -0.201875 -0.13619
62 -0.0505195 -99999 -0.187267 -0.0840741 -0.164405 -0.188523 -0.141881 -0.207534 -0.10811 -0.156923 -99999 -0.134615 -99999 -0.107531 -0.18443 -0.218889 -0.0493939 -99999 -0.177164 -0.174559 -0.168428 -0.153236 -0.145806 -0.155623 -0.151134 -0.195607 -0.155807 -0.151927 -0.157131 -0.116577 -0.101605 -0.224037 -0.156697 -0.252802 -0.142964 -99999 -0.31 -0.121429 -0.249095 -0.164444 -0.210655 -0.107802 -0.176154 -0.0617355 -0.0409677 -0.104762 -0.178235 -0.224754 -0.124111 -0.242353 -0.111914 -0.118791 -0.211495 -0.234135 -0.162687 -99999 -0.17141 -0.121549 -0.199347 -0.0611475 -0.155074 -0.232818 -99999 -0.160417 -0.210591 -99999 -0.135986 -0.165779 -0.147214 -0.141366 -0.176951 -0.168462 -0.228836 -0.112987 -0.14645 -0.207225 -0.118641 -0.135896 -0.114425 -0.152238 -99999 -99999 -0.200917 -0.203971 -0.151301 -0.148414 -0.134976 -0.192687 -0.104027
63 -0.231212 -99999 -0.251996 -0.222135 -0.257442 -0.266311 -0.319767 -0.216498 -0.215359 -0.384771 -99999 -0.287586 -99999 -0.234795 -0.3091 -0.222741 -99999 -99999 -0.237138 -0.251924 -0.296256 -0.222297 -0.267249 -0.226012 -0.238642 -0.420092 -0.262044 -0.284878 -0.297733 -0.245206 -0.223243 -0.23703 -0.250126 -0.287354 -0.280405 -99999 -99999 -0.261585 -0.285045 -0.341845 -0.265212 -0.291444 -0.2874 -0.131239 -0.345897 -0.198176 -0.251319 -0.27736 -0.229075 -0.26241 -0.217318 -0.254202 -0.380435 -0.320213 -0.309437 -99999 -0.168222 -0.291642 -0.242752 -0.369565 -0.285018 -0.297178 -99999 -0.301593 -0.338089 -99999 -0.240997 -0.19913 -0.259677 -0.292628 -0.27188 -0.311644 -0.391146 -0.261968 -0.249004 -0.301162 -0.226117 -0.261839 -0.250645 -0.285257 -99999 -99999 -0.244459 -0.24145 -0.224309 -0.230971 -0.257856 -0.273006 -0.289928
64 -0.169377 -99999 -0.190135 -0.154994 -0.195155 -0.208581 -0.211617 -0.180431 -0.192536 -0.171284 -0.242632 -0.158893 -0.192316 -0.164019 -0.193373 -0.177048 -0.13675 -0.137273 -0.176456 -0.177943 -0.191414 -0.149284 -0.198672 -0.184567 -0.184182 -0.197891 -0.210746 -0.188857 -0.18549 -0.16666 -0.186127 -0.18888 -0.173064 -0.175044 -0.140263 -0.239545 -0.151763 -0.210479 -0.204913 -0.194091 -0.186767 -0.200661 -0.172674 -0.220427 -0.217297 -0.208927 -0.168586 -0.195771 -0.204144 -0.179089 -0.164304 -0.189348 -0.211422 -0.20558 -0.218951 -0.242162 -0.21 -0.194289 -0.219404 -0.201267 -0.195059 -0.211251 -0.11963 -0.19539 -0.206859 -0.0970423 -0.196628 -0.18241 -0.179974 -0.205459 -0.168787 -0.168383 -0.207567 -0.150199 -0.194887 -0.183393 -0.173514 -0.206477 -0.192709 -0.17149 -0.0546753 -99999 -0.185191 -0.179452 -0.181553 -0.173157 -0.179359 -0.191957 -0.190514
65 -0.143871 -0.117937 -0.138839 -0.138769 -0.124056 -0.125964 -0.166591 -0.14948 -0.169839 -0.155077 -0.104251 -0.206413 -0.131891 -0.128571 -0.155426 -0.192881 -0.157804 -0.135052 -0.161829 -0.146372 -0.141469 -0.123376 -0.142167 -0.134772 -0.154228 -0.15056 -0.146672 -0.150894 -0.139428 -0.142333 -0.161791 -0.151646 -0.14249 -0.142351 -0.132936 -0.13 -0.147879 -0.16063 -0.152688 -0.165629 -0.145174 -0.161505 -0.135932 -0.118271 -0.172182 -0.159028 -0.135232 -0.176482 -0.130497 -0.120954 -0.124687 -0.111966 -0.156775 -0.153309 -0.15779 -0.126774 -0.160388 -0.189173 -0.15919 -0.17085 -0.161448 -0.145351 -0.163122 -0.148273 -0.166749 -0.190769 -0.142949 -0.136886 -0.162312 -0.123491 -0.137272 -0.136648 -0.156068 -0.161716 -0.136658 -0.135088 -0.145653 -0.1464 -0.173825 -0.129257 -0.120698 -0.153038 -0.149159 -0.142762 -0.134003 -0.129709 -0.123067 -0.147878 -0.16041
66 -0.883448 -99999 -0.941265 -0.949331 -0.888063 -0.933873 -0.938176 -0.979184 -0.902359 -0.963838 -99999 -1.01902 -99999 -0.963634 -0.93795 -0.927402 -0.822849 -99999 -0.928725 -0.936826 -0.971036 -0.895556 -0.9322 -0.920978 -0.974031 -1.0212 -0.965799 -0.943306 -0.943309 -0.931552 -1.01443 -0.898119 -0.952626 -0.929587 -0.916443 -99999 -0.830857 -0.974883 -0.90533 -0.953147 -0.948436 -0.856315 -0.931131 -0.979666 -0.931322 -0.927922 -0.946164 -0.913125 -0.939766 -0.945651 -0.930216 -0.960141 -0.998011 -0.944741 -0.915842 -0.991964 -0.856792 -0.94981 -0.97561 -0.890994 -0.97668 -0.952706 -99999 -0.976724 -0.953177 -0.844038 -0.943855 -0.857562 -0.861079 -0.965132 -0.92645 -0.971022 -0.987993 -0.996615 -0.917132 -0.939877 -0.960229 -0.954137 -0.862607 -0.932199 -99999 -99999 -0.935922 -0.968012 -0.921349 -0.937542 -0.933679 -0.931662 -0.884419
67 -99999 -99999 -99999 -99999 -99999 -99999 -99999 -99999 -99999 -99999 -99999 -99999 -99999 -99999 -99999 -99999 -99999 -99999 -99999 -99999 -99999 -99999 -99999 -99999 -99999 -99999 -99999 -99999 -99999 -99999 -99999 -99999 -99999 -99999 -99999 -99999 -99999 -99999 -99999 -99999 -99999 -99999 -99999 -99999 -99999 -99999 -99999 -99999 -99999 -99999 -99999 -99999 -99999 -99999 -99999 -99999 -99999 -99999 -99999 -99999 -99999 -99999 -99999 -99999 -99999 -99999 -99999 -99999 -99999 -99999 -99999 -99999 -99999 -99999 -99999 -99999 -99999 -99999 -99999 -99999 -99999 -99999 -99999 -99999 -99999 -99999 -99999 -99999 -99999
68 -0.0180963 -0.0214894 -0.0615961 -0.0433455 -0.0347755 -0.0701903 -0.082371 -0.069216 -0.0478005 -0.0859741 -0.0599526 -0.0296778 -0.0430293 -0.0839066 -0.0841127 -0.064055 -0.0842114 -0.0633668 -0.0724127 -0.0569071 -0.0423837 -0.0374946 -0.0915956 -0.0674929 -0.07209 -0.120297 -0.0720776 -0.0669733 -0.0604968 -0.0585682 -0.0835862 -0.0785991 -0.0634673 -0.0659044 -0.0377129 -0.0924444 -0.0578319 -0.0757631 -0.0673479 -0.0533669 -0.0472133 -0.0414137 -0.052345 -0.0655385 -0.037913 -0.0617614 -0.057169 -0.0615619 -0.0789919 -0.0589534 -0.0648056 -0.060846 -0.0860338 -0.0857914 -0.0848123 -0.0360733 -0.0971008 -0.0910369 -0.0872145 -0.0744234 -0.0697062 -0.0702901 -0.034335 -0.0730235 -0.124341 -0.107315 -0.0665636 -0.061573 -0.0965637 -0.0706506 -0.0367412 -0.0695409 -0.116887 -0.0709442 -0.0647649 -0.0590716 -0.0664844 -0.069076 -0.0900972 -0.0771121 -0.01 -0.109706 -0.0578699 -0.0403034 -0.0433806 -0.0744108 -0.0592099 -0.0325827 -0.04296
69 -0.287254 -99999 -0.351852 -0.328645 -0.356847 -0.357708 -0.367302 -0.35773 -0.333282 -0.378638 -0.316848 -0.408767 -0.434961 -0.359038 -0.356584 -0.340881 -0.359607 -0.380788 -0.358446 -0.338288 -0.344369 -0.309446 -0.3584 -0.347799 -0.351835 -0.397844 -0.354788 -0.34823 -0.340504 -0.33007 -0.410432 -0.360059 -0.343721 -0.363183 -0.329846 -0.42039 -0.338404 -0.367806 -0.318114 -0.37521 -0.345276 -0.349149 -0.358089 -0.38347 -0.361633 -0.365287 -0.32251 -0.360769 -0.32721 -0.35355 -0.335919 -0.351387 -0.351286 -0.370691 -0.360521 -0.342976 -0.357562 -0.352826 -0.36887 -0.343744 -0.357288 -0.385688 -0.352458 -0.345375 -0.36847 -0.324154 -0.351639 -0.34966 -0.338767 -0.336681 -0.347036 -0.29703 -0.328584 -0.350213 -0.371589 -0.332024 -0.351954 -0.344145 -0.355394 -0.347561 -0.414045 -0.267179 -0.335169 -0.368263 -0.325129 -0.344296 -0.312152 -0.334173 -0.348279
70 -99999 -99999 -99999 -99999 -99999 -99999 -99999 -99999 -99999 -99999 -99999 -99999 -99999 -99999 -99999 -99999 -99999 -99999 -99999 -99999 -99999 -99999 -99999 -99999 -99999 -99999 -99999 -99999 -99999 -99999 -99999 -99999 -99999 -99999 -99999 -99999 -99999 -99999 -99999 -99999 -99999 -99999 -99999 -99999 -99999 -99999 -99999 -99999 -99999 -99999 -99999 -99999 -99999 -99999 -99999 -99999 -99999 -99999 -99999 -99999 -99999 -99999 -99999 -99999 -99999 -99999 -99999 -99999 -99999 -99999 -99999 -99999 -99999 -99999 -99999 -99999 -99999 -99999 -99999 -99999 -99999 -99999 -99999 -99999 -99999 -99999 -99999 -99999 -99999
71 -0.150596 -0.159643 -0.160192 -0.151488 -0.148404 -0.152351 -0.165102 -0.163532 -0.137773 -0.125716 -0.0690813 -0.14519 -0.135889 -0.149715 -0.161136 -0.172904 -0.150085 -0.201977 -0.152259 -0.134203 -0.117021 -0.110016 -0.147262 -0.166892 -0.161326 -0.172827 -0.158826 -0.149687 -0.121972 -0.128419 -0.148713 -0.160621 -0.142404 -0.156529 -0.12468 -0.0969919 -0.133743 -0.139153 -0.141703 -0.160224 -0.131097 -0.138382 -0.13314 -0.171083 -0.150599 -0.131668 -0.158321 -0.138355 -0.149122 -0.139729 -0.138701 -0.121784 -0.18798 -0.177381 -0.157794 -0.147949 -0.157006 -0.177512 -0.155286 -0.182595 -0.13618 -0.150233 -0.162367 -0.154031 -0.149202 -0.137751 -0.156905 -0.159106 -0.148051 -0.144865 -0.180228 -0.138082 -0.176566 -0.155327 -0.144689 -0.144163 -0.14168 -0.146589 -0.17797 -0.128864 -0.0808929 -0.0139344 -0.13187 -0.129684 -0.129196 -0.148098 -0.137758 -0.159069 -0.129449
72 -0.172935 -0.254528 -0.121217 -0.154854 -0.152455 -0.150345 -0.140119 -0.148366 -0.11987 -0.163066 -0.0856972 -0.206253 -0.223919 -0.133721 -0.141701 -0.156953 -0.120866 -0.152526 -0.140643 -0.132411 -0.149007 -0.0931573 -0.139455 -0.134164 -0.148334 -0.139574 -0.144741 -0.154214 -0.145528 -0.136043 -0.177401 -0.164229 -0.112553 -0.159188 -0.117517 -0.0990385 -0.12828 -0.110353 -0.137667 -0.145921 -0.111829 -0.13478 -0.115616 -0.105121 -0.122757 -0.142357 -0.122935 -0.127223 -0.123728 -0.158009 -0.100962 -0.113539 -0.186567 -0.128986 -0.136253 -0.199484 -0.164384 -0.156284 -0.142936 -0.184 -0.123278 -0.143933 -0.202577 -0.138331 -0.16 -0.182563 -0.133401 -0.124169 -0.1306 -0.125694 -0.118951 -0.107162 -0.163653 -0.139635 -0.157156 -0.131569 -0.13145 -0.134257 -0.150685 -0.109899 -0.0257282 -0.071978 -0.126659 -0.121956 -0.100796 -0.125129 -0.106945 -0.10821 -0.119374
73 -0.894106 -99999 -0.928029 -0.849178 -0.904743 -0.951246 -0.959232 -0.996923 -0.921203 -0.951093 -0.893158 -0.963421 -0.780538 -0.938444 -0.932456 -0.939085 -0.898305 -99999 -0.935473 -0.928562 -0.920291 -0.898842 -0.91863 -0.954164 -0.973275 -0.954642 -0.934426 -0.942844 -0.942276 -0.944718 -0.928 -0.914204 -0.942198 -0.950484 -0.935941 -99999 -0.970617 -0.94749 -0.915763 -0.992134 -0.960144 -0.933841 -0.916554 -0.900117 -0.877226 -0.92164 -0.952236 -0.888278 -0.894586 -0.902516 -0.892501 -0.90555 -0.92544 -0.986341 -0.892589 -0.934286 -0.887405 -0.965428 -0.944196 -0.97344 -0.945518 -0.958246 -99999 -0.942953 -0.945442 -0.831185 -0.972692 -0.93972 -0.928609 -0.938512 -0.951721 -0.911943 -0.977099 -0.941614 -0.975549 -0.951547 -0.938945 -0.93639 -0.968053 -0.924914 -99999 -99999 -0.939011 -0.945833 -0.906087 -0.940881 -0.916682 -0.964279 -0.907136
74 -99999 -99999 -99999 -99999 -99999 -99999 -99999 -99999 -99999 -99999 -99999 -99999 -99999 -99999 -99999 -99999 -99999 -99999 -99999 -99999 -99999 -99999 -99999 -99999 -99999 -99999 -99999 -99999 -99999 -99999 -99999 -99999 -99999 -99999 -99999 -99999 -99999 -99999 -99999 -99999 -99999 -99999 -99999 -99999 -99999 -99999 -99999 -99999 -99999 -99999 -99999 -99999 -99999 -99999 -99999 -99999 -99999 -99999 -99999 -99999 -99999 -99999 -99999 -99999 -99999 -99999 -99999 -99999 -99999 -99999 -99999 -99999 -99999 -99999 -99999 -99999 -99999 -99999 -99999 -99999 -99999 -99999 -99999 -99999 -99999 -99999 -99999 -99999 -99999
75 -0.214221 -99999 -0.194985 -0.196467 -0.201126 -0.221752 -0.226679 -0.195505 -0.216639 -0.209833 -0.199771 -0.21533 -0.211533 -0.208287 -0.215852 -0.202044 -0.242844 -0.248922 -0.201209 -0.174376 -0.175757 -0.167911 -0.202626 -0.208422 -0.213082 -0.248947 -0.218896 -0.210559 -0.208493 -0.178255 -0.215918 -0.199302 -0.185606 -0.197248 -0.182355 -0.118544 -0.195254 -0.208232 -0.191274 -0.210137 -0.190993 -0.218517 -0.204871 -0.201012 -0.230783 -0.183736 -0.203969 -0.201459 -0.21011 -0.175891 -0.182291 -0.18862 -0.243443 -0.211128 -0.226531 -0.234662 -0.20346 -0.213592 -0.217037 -0.229741 -0.219784 -0.211719 -0.170761 -0.191142 -0.244303 -0.190113 -0.218153 -0.19393 -0.188596 -0.198176 -0.195031 -0.174729 -0.216973 -0.210227 -0.180662 -0.197519 -0.190477 -0.21863 -0.221245 -0.201005 -0.2364 -0.191591 -0.200682 -0.186163 -0.176745 -0.205658 -0.19338 -0.20128 -0.212033
76 -0.0872611 -99999 -0.0806983 -0.111252 -0.09011 -0.0698714 -0.0955464 -0.0693511 -0.0771022 -0.0844551 -0.0425833 -0.0616429 -0.0686667 -0.0780457 -0.0691366 -0.0614191 -0.128245 -0.105974 -0.0742229 -0.0764483 -0.0682784 -0.0282196 -0.0865031 -0.070784 -0.0796689 -0.109197 -0.0782178 -0.0756274 -0.0737396 -0.0519636 -0.0781256 -0.0692559 -0.0609393 -0.0870946 -0.052743 -0.0491667 -0.0901412 -0.127595 -0.0486815 -0.106015 -0.0538641 -0.0920836 -0.0780997 -0.109902 -0.0660063 -0.0806196 -0.0657733 -0.110488 -0.0902193 -0.0863335 -0.0914712 -0.0861307 -0.113834 -0.0999124 -0.112839 -0.131609 -0.104579 -0.0737536 -0.0838384 -0.0872355 -0.0869864 -0.0734879 -0.0949485 -0.0898496 -0.140199 -0.0861983 -0.0631182 -0.0725273 -0.0695126 -0.0735069 -0.0415133 -0.0666588 -0.0867171 -0.0737229 -0.0777328 -0.0591782 -0.0859326 -0.0887591 -0.0978619 -0.0792987 -0.265789 -0.366786 -0.0573514 -0.074235 -0.0568222 -0.0790061 -0.0743379 -0.0888047 -0.0740599
77 -0.212595 -0.2448 -0.235309 -0.247797 -0.219523 -0.246719 -0.27079 -0.234931 -0.253882 -0.232147 -0.246667 -0.220066 -0.262937 -0.242723 -0.245675 -0.266757 -0.228774 -0.229471 -0.237374 -0.225624 -0.239985 -0.197354 -0.259176 -0.232474 -0.249385 -0.25083 -0.253654 -0.260876 -0.243372 -0.225003 -0.287057 -0.257046 -0.221501 -0.247265 -0.231303 -0.07875 -0.247628 -0.235918 -0.247175 -0.299963 -0.219124 -0.234896 -0.220192 -0.238871 -0.27742 -0.232184 -0.233126 -0.253333 -0.219381 -0.213444 -0.203425 -0.210056 -0.281898 -0.246844 -0.238815 -0.299198 -0.295302 -0.254628 -0.244589 -0.318479 -0.250369 -0.237496 -0.298953 -0.23691 -0.298636 -0.266098 -0.243705 -0.247876 -0.256991 -0.237116 -0.220196 -0.229429 -0.256832 -0.248937 -0.246562 -0.252278 -0.227979 -0.220333 -0.238323 -0.238552 -0.203247 -0.281667 -0.227189 -0.282361 -0.217418 -0.225376 -0.209165 -0.234553 -0.222986
78 -0.248879 -99999 -0.249592 -0.23703 -0.22165 -0.255035 -0.271104 -0.235996 -0.269608 -0.269334 -0.293062 -0.256694 -0.247443 -0.26704 -0.233697 -0.258748 -0.242665 -0.231863 -0.243294 -0.233361 -0.231429 -0.222107 -0.249683 -0.231076 -0.257394 -0.271524 -0.258631 -0.231621 -0.230069 -0.221231 -0.266188 -0.249957 -0.245064 -0.247061 -0.214252 -0.249783 -0.231709 -0.248168 -0.23009 -0.252359 -0.224215 -0.286039 -0.235462 -0.254899 -0.273604 -0.236776 -0.24477 -0.254644 -0.233598 -0.263563 -0.229221 -0.220791 -0.271406 -0.271028 -0.249434 -0.249938 -0.267017 -0.232784 -0.251168 -0.313041 -0.242212 -0.247379 -0.208736 -0.246158 -0.256274 -0.25493 -0.253985 -0.230637 -0.23739 -0.244412 -0.253661 -0.219775 -0.279646 -0.244273 -0.242003 -0.247375 -0.224505 -0.260035 -0.262989 -0.231315 -0.283103 -0.458116 -0.231659 -0.247433 -0.223109 -0.249074 -0.227878 -0.258439 -0.247324
79 -1.19233 -99999 -1.1594 -1.10515 -1.11646 -1.18538 -1.14264 -1.10184 -1.1276 -1.12655 -0.982549 -1.03338 -1.15376 -1.1284 -1.14306 -1.1527 -1.04384 -1.33162 -1.14133 -1.13794 -1.09779 -1.11026 -1.13722 -1.14203 -1.12836 -1.15624 -1.15272 -1.12489 -1.12122 -1.10546 -0.997649 -1.15906 -1.14662 -1.09804 -1.10727 -99999 -1.04447 -1.10768 -1.16081 -1.17932 -1.17964 -1.16357 -1.12343 -1.18804 -1.14739 -1.05651 -1.10404 -1.1927 -1.12261 -1.14741 -1.14134 -1.15325 -1.16892 -1.14576 -1.14101 -99999 -1.15426 -1.06304 -1.13526 -1.17133 -1.12015 -1.15252 -99999 -1.15016 -1.12971 -1.16658 -1.13093 -1.10374 -1.13329 -1.11005 -1.11579 -1.08137 -1.08382 -1.08328 -1.13944 -1.08756 -1.12695 -1.12996 -1.09708 -1.1604 -99999 -99999 -1.12992 -1.14849 -1.09197 -1.08289 -1.12124 -1.13459 -1.10468
80 -99999 -99999 -99999 -99999 -99999 -99999 -99999 -99999 -99999 -99999 -99999 -99999 -99999 -99999 -99999 -99999 -99999 -99999 -99999 -99999 -99999 -99999 -99999 -99999 -99999 -99999 -99999 -99999 -99999 -99999 -99999 -99999 -99999 -99999 -99999 -99999 -99999 -99999 -99999 -99999 -99999 -99999 -99999 -99999 -99999 -99999 -99999 -99999 -99999 -99999 -99999 -99999 -99999 -99999 -99999 -99999 -99999 -99999 -99999 -99999 -99999 -99999 -99999 -99999 -99999 -99999 -99999 -99999 -99999 -99999 -99999 -99999 -99999 -99999 -99999 -99999 -99999 -99999 -99999 -99999 -99999 -99999 -99999 -99999 -99999 -99999 -99999 -99999 -99999
81 -0.183023 -0.188214 -0.221257 -0.222339 -0.205517 -0.220002 -0.230108 -0.228453 -0.223762 -0.23881 -0.24416 -0.265091 -0.198 -0.220814 -0.213253 -0.241432 -0.230031 -0.325488 -0.202225 -0.2036 -0.222013 -0.186625 -0.21586 -0.21159 -0.226125 -0.246571 -0.233258 -0.214944 -0.197102 -0.200711 -0.262747 -0.233916 -0.198011 -0.268464 -0.200744 -0.163333 -0.167366 -0.235525 -0.211294 -0.254006 -0.200894 -0.218518 -0.217566 -0.227575 -0.260025 -0.218877 -0.198247 -0.220896 -0.208574 -0.195311 -0.201937 -0.194853 -0.258788 -0.212057 -0.215124 -0.242884 -0.223739 -0.242784 -0.247149 -0.29258 -0.219539 -0.222087 -0.275385 -0.218293 -0.240669 -0.209006 -0.224592 -0.201149 -0.194654 -0.231345 -0.222142 -0.21964 -0.225841 -0.200188 -0.216016 -0.210015 -0.206268 -0.202333 -0.203303 -0.20553 -0.201028 -0.335357 -0.217402 -0.231813 -0.185133 -0.215745 -0.196387 -0.221327 -0.189112
82 -0.25321 -99999 -0.269763 -0.280482 -0.262772 -0.285518 -0.275155 -0.26873 -0.229882 -0.240971 -0.259046 -0.290447 -0.331212 -0.281052 -0.276891 -0.257372 -0.293276 -0.300233 -0.273401 -0.268092 -0.28607 -0.248288 -0.255705 -0.268514 -0.263367 -0.355775 -0.281775 -0.272245 -0.2787 -0.262747 -0.343601 -0.263898 -0.259415 -0.245818 -0.265185 -0.14434 -0.271872 -0.251589 -0.25656 -0.280405 -0.284252 -0.273287 -0.256867 -0.283904 -0.294456 -0.244769 -0.278898 -0.272358 -0.273278 -0.245237 -0.231098 -0.253804 -0.293688 -0.277691 -0.256356 -0.298182 -0.312133 -0.275662 -0.286202 -0.310422 -0.269415 -0.285962 -0.327143 -0.275942 -0.30994 -0.355697 -0.289752 -0.246466 -0.259977 -0.281449 -0.271761 -0.25976 -0.317535 -0.246148 -0.264155 -0.272067 -0.255981 -0.271105 -0.219361 -0.256588 -0.300851 -0.18625 -0.257817 -0.299259 -0.259654 -0.246942 -0.255741 -0.237101 -0.2617
83 -0.0788793 0.0230909 -0.0556181 -0.0727744 -0.0574554 -0.0770327 -0.0732536 -0.0490083 -0.0503666 -0.0679083 -0.0191473 -0.0451258 -0.0205466 -0.0564739 -0.0356337 -0.0719954 -0.0984762 -0.105141 -0.0411892 -0.0289071 -0.0575325 -0.0197915 -0.0593642 -0.0364316 -0.0450624 -0.0986743 -0.0557094 -0.0569264 -0.0347583 -0.0268555 -0.062228 -0.0767845 -0.040227 -0.0699941 -0.043376 -0.032623 -0.019877 -0.0252787 -0.0242274 -0.0495212 -0.0393051 -0.0429863 -0.0458213 -0.00945455 -0.0691579 -0.010698 -0.0354676 -0.0841875 -0.028959 -0.0144977 -0.0264666 -0.0633054 -0.0907107 -0.0401742 -0.0940073 -0.0796606 -0.046286 -0.0575389 -0.0524574 -0.0590801 -0.0265783 -0.0435951 -0.0411881 -0.0474292 -0.0796637 -0.0847181 -0.031824 -0.0225829 -0.0390864 -0.0168022 -0.0345629 -0.0415254 -0.0613878 -0.0506491 -0.056186 -0.0280632 -0.0446119 -0.0407319 -0.0356094 -0.0454925 -0.120909 -0.164328 -0.0303602 -0.0325491 -0.0235742 -0.0523183 -0.0449132 -0.0612717 -0.0492116
84 -0.0350552 -0.0896226 -0.062479 -0.051885 -0.0455981 -0.0382102 -0.0447355 -0.0373985 -0.0294057 -0.0777339 -0.08251 -0.0501328 -0.0471429 -0.0378439 -0.049297 -0.0344994 -0.0538547 -0.0282178 -0.0535515 -0.0176226 -0.0462236 -0.00982755 -0.0563619 -0.0441925 -0.0599687 -0.082893 -0.054522 -0.039526 -0.0287797 -0.0227937 -0.039313 -0.0405788 -0.0265896 -0.0605619 -0.0248199 0.0789655 -0.0387528 -0.0394187 -0.0454047 -0.054642 -0.0297293 -0.0448829 -0.0227993 -0.022 -0.0518651 -0.0578098 -0.0258445 -0.0340079 -0.0305057 -0.0241407 -0.00647297 -0.00996378 -0.0539911 -0.0460144 -0.0386478 -0.00149296 -0.0438844 -0.0693642 -0.0470536 -0.0363467 -0.0559914 -0.0623134 -0.184497 -0.0314502 -0.0762608 -0.0194937 -0.0304978 -0.0252252 -0.0210082 -0.025558 -0.0378283 -0.0220787 -0.0655833 -0.0154284 -0.0475354 -0.0378025 -0.0184526 -0.0450617 -0.0434719 -0.0329061 -0.0412821 -0.227419 -0.0280247 -0.0599303 -0.00491697 -0.0251051 -0.0183137 -0.0298942 -0.00428652
85 -1.11773 -99999 -1.06522 -1.01075 -1.05064 -1.08555 -1.11755 -1.04364 -1.07847 -1.11732 -1.06957 -1.00059 -0.9564 -1.0857 -1.11029 -1.03419 -1.02678 -1.15413 -1.09057 -1.07382 -1.04117 -1.05039 -1.06552 -1.09633 -1.14696 -1.05351 -1.11121 -1.07894 -1.08111 -1.09083 -1.0514 -1.08006 -1.08972 -1.07433 -1.03133 -99999 -1.02813 -1.06685 -1.14922 -1.04882 -1.05726 -1.04408 -1.04825 -1.02022 -1.01275 -1.0815 -1.0858 -1.12385 -1.06229 -1.1004 -1.0591 -1.0809 -1.04953 -1.07714 -1.08724 -1.08828 -1.10026 -1.07216 -1.10975 -0.995339 -1.09967 -1.13217 -0.979296 -1.10883 -1.09705 -1.14856 -1.07916 -1.06667 -1.09595 -1.078 -1.06303 -1.0663 -1.06742 -1.06366 -1.07834 -1.09246 -1.09538 -1.08997 -1.0796 -1.0791 -99999 -99999 -1.06866 -1.10575 -1.06715 -1.07668 -1.06097 -1.07045 -1.07197
86 -99999 -99999 -99999 -99999 -99999 -99999 -99999 -99999 -99999 -99999 -99999 -99999 -99999 -99999 -99999 -99999 -99999 -99999 -99999 -99999 -99999 -99999 -99999 -99999 -99999 -99999 -99999 -99999 -99999 -99999 -99999 -99999 -99999 -99999 -99999 -99999 -99999 -99999 -99999 -99999 -99999 -99999 -99999 -99999 -99999 -99999 -99999 -99999 -99999 -99999 -99999 -99999 -99999 -99999 -99999 -99999 -99999 -99999 -99999 -99999 -99999 -99999 -99999 -99999 -99999 -99999 -99999 -99999 -99999 -99999 -99999 -99999 -99999 -99999 -99999 -99999 -99999 -99999 -99999 -99999 -99999 -99999 -99999 -99999 -99999 -99999 -99999 -99999 -99999
87 -0.114318 -0.091 -0.145646 -0.161326 -0.147258 -0.153032 -0.199345 -0.159943 -0.144438 -0.165445 -0.253587 -0.161286 -0.160353 -0.159948 -0.156638 -0.156845 -0.135377 -0.180506 -0.149316 -0.153114 -0.167792 -0.12546 -0.174303 -0.171039 -0.181925 -0.21072 -0.159031 -0.165153 -0.154716 -0.142234 -0.160939 -0.142329 -0.158856 -0.170745 -0.13316 -0.168252 -0.177487 -0.181233 -0.135711 -0.176265 -0.169491 -0.155318 -0.126371 -0.164016 -0.180105 -0.198308 -0.157328 -0.207046 -0.146859 -0.146026 -0.117062 -0.152379 -0.189969 -0.156742 -0.15551 -0.185073 -0.157398 -0.196694 -0.176289 -0.178622 -0.178531 -0.175382 -0.187791 -0.173462 -0.172901 -0.156645 -0.15036 -0.144154 -0.186635 -0.170109 -0.148726 -0.150354 -0.176951 -0.167999 -0.137129 -0.167346 -0.157591 -0.163632 -0.154191 -0.151468 -0.142955 -0.205385 -0.154314 -0.154898 -0.144217 -0.147814 -0.146179 -0.128178 -0.146124
88 -0.148702 -0.26037 -0.154366 -0.142401 -0.141549 -0.172951 -0.183981 -0.15889 -0.171963 -0.186929 -0.199012 -0.16702 -0.19216 -0.155611 -0.162325 -0.16297 -0.170633 -0.143478 -0.156072 -0.152301 -0.137586 -0.131228 -0.180609 -0.166834 -0.189441 -0.185901 -0.169309 -0.173395 -0.156834 -0.159462 -0.206203 -0.196354 -0.151384 -0.191231 -0.137565 -0.260991 -0.135354 -0.15977 -0.171986 -0.199759 -0.161296 -0.144932 -0.142037 -0.226994 -0.170442 -0.181359 -0.145232 -0.152515 -0.156975 -0.162485 -0.144598 -0.141938 -0.194075 -0.162043 -0.166217 -0.167453 -0.180872 -0.163853 -0.193013 -0.165723 -0.183022 -0.162069 -0.273059 -0.152155 -0.158375 -0.205915 -0.180993 -0.149759 -0.174022 -0.163418 -0.170849 -0.130758 -0.180563 -0.152106 -0.158793 -0.151564 -0.142907 -0.160162 -0.170602 -0.141598 -0.206735 -0.264872 -0.142736 -0.178659 -0.140195 -0.150901 -0.11942 -0.1529 -0.15486
89 -0.314884 -99999 -0.355137 -0.378159 -0.376121 -0.370551 -0.382448 -0.352309 -0.35433 -0.367739 -0.381203 -0.386137 -0.418232 -0.357966 -0.365473 -0.376039 -0.412835 -0.452935 -0.350552 -0.348503 -0.380423 -0.324341 -0.377331 -0.355174 -0.36957 -0.380273 -0.375106 -0.372109 -0.356592 -0.3459 -0.392192 -0.371938 -0.357718 -0.387646 -0.360333 -0.263861 -0.29887 -0.354855 -0.351508 -0.37079 -0.334583 -0.345695 -0.359868 -0.37275 -0.404482 -0.344928 -0.350627 -0.390025 -0.340195 -0.344589 -0.341503 -0.338533 -0.394665 -0.326786 -0.355777 -0.377826 -0.380328 -0.366773 -0.351502 -0.400811 -0.347373 -0.354923 -0.421123 -0.356686 -0.354335 -0.320894 -0.36153 -0.348417 -0.360615 -0.351565 -0.332967 -0.336505 -0.376066 -0.335706 -0.358844 -0.350811 -0.353589 -0.346384 -0.342814 -0.338228 -0.453243 -0.288462 -0.347124 -0.367061 -0.336851 -0.341855 -0.339335 -0.35075 -0.356327
90 -0.354548 -0.242381 -0.360878 -0.3365 -0.363815 -0.380355 -0.378521 -0.365689 -0.350872 -0.385174 -0.350383 -0.368369 -0.327862 -0.356744 -0.362816 -0.366227 -0.355873 -0.40772 -0.354083 -0.344106 -0.34633 -0.327062 -0.366957 -0.356689 -0.370646 -0.392361 -0.363791 -0.357608 -0.359749 -0.336297 -0.362505 -0.383019 -0.339804 -0.381696 -0.352066 -0.430619 -0.344672 -0.36689 -0.353063 -0.360122 -0.352647 -0.358969 -0.354189 -0.374058 -0.391827 -0.335748 -0.35094 -0.366433 -0.368779 -0.351981 -0.326151 -0.338956 -0.371251 -0.347715 -0.389867 -0.359412 -0.364925 -0.360221 -0.358553 -0.344214 -0.36497 -0.378179 -0.446042 -0.354449 -0.386488 -0.333103 -0.383311 -0.327216 -0.355137 -0.355636 -0.352872 -0.343302 -0.362645 -0.365977 -0.370712 -0.338365 -0.3475 -0.339612 -0.360962 -0.34294 -0.380426 -0.25987 -0.355359 -0.372773 -0.339659 -0.344656 -0.324978 -0.362414 -0.341772
91 -1.17719 -99999 -1.12963 -1.09329 -1.12067 -1.11468 -1.11579 -1.10699 -1.13611 -1.0648 -1.24516 -1.13706 -1.02116 -1.11762 -1.11743 -1.13295 -1.14187 -99999 -1.10977 -1.06916 -1.08828 -1.08323 -1.16553 -1.13249 -1.13363 -1.05256 -1.11963 -1.10221 -1.11265 -1.10175 -1.15051 -1.06336 -1.10219 -1.06664 -1.05997 -99999 -1.0974 -1.12061 -1.10278 -1.10616 -1.11776 -1.09373 -1.05674 -1.12891 -1.05243 -1.08991 -1.07762 -1.12186 -1.08728 -1.13778 -1.08705 -1.07535 -1.14225 -1.11343 -1.13555 -1.12653 -1.10066 -1.13561 -1.11587 -1.15537 -1.10873 -1.13854 -99999 -1.10789 -1.16179 -1.02932 -1.12578 -1.09954 -1.07787 -1.07555 -1.13114 -1.07588 -1.1291 -1.1108 -1.09766 -1.07314 -1.08093 -1.09349 -1.09139 -1.08526 -99999 -99999 -1.08748 -1.1207 -1.08668 -1.09913 -1.0932 -1.05751 -1.12198
92 -99999 -99999 -99999 -99999 -99999 -99999 -99999 -99999 -99999 -99999 -99999 -99999 -99999 -99999 -99999 -99999 -99999 -99999 -99999 -99999 -99999 -99999 -99999 -99999 -99999 -99999 -99999 -99999 -99999 -99999 -99999 -99999 -99999 -99999 -99999 -99999 -99999 -99999 -99999 -99999 -99999 -99999 -99999 -99999 -99999 -99999 -99999 -99999 -99999 -99999 -99999 -99999 -99999 -99999 -99999 -99999 -99999 -99999 -99999 -99999 -99999 -99999 -99999 -99999 -99999 -99999 -99999 -99999 -99999 -99999 -99999 -99999 -99999 -99999 -99999 -99999 -99999 -99999 -99999 -99999 -99999 -99999 -99999 -99999 -99999 -99999 -99999 -99999 -99999
93 -0.206836 -0.394242 -0.22003 -0.236373 -0.201685 -0.203744 -0.237082 -0.238208 -0.246025 -0.223885 -0.153938 -0.28463 -0.236042 -0.229734 -0.219426 -0.225876 -0.195167 -0.287756 -0.228515 -0.211056 -0.221079 -0.19593 -0.230822 -0.22379 -0.233178 -0.239315 -0.241528 -0.235285 -0.219069 -0.203058 -0.256119 -0.219764 -0.216131 -0.251964 -0.199402 -0.2014 -0.202054 -0.220183 -0.188722 -0.202152 -0.1914 -0.238617 -0.189276 -0.237703 -0.278844 -0.232054 -0.205274 -0.186039 -0.212222 -0.216595 -0.197364 -0.191148 -0.197496 -0.214996 -0.24453 -0.256566 -0.231817 -0.281708 -0.222554 -0.207488 -0.223881 -0.204051 -0.282216 -0.212219 -0.228999 -0.282141 -0.228518 -0.235043 -0.195722 -0.209951 -0.188998 -0.180812 -0.234759 -0.208991 -0.211086 -0.192373 -0.197306 -0.205092 -0.216167 -0.208888 -0.264151 -0.253226 -0.207597 -0.245558 -0.177042 -0.208399 -0.201036 -0.221126 -0.188202
94 -0.165938 -99999 -0.172096 -0.184133 -0.163635 -0.17194 -0.188096 -0.160571 -0.167187 -0.191203 -0.117786 -0.163451 -0.194702 -0.16986 -0.179487 -0.187057 -0.161349 -0.27078 -0.177695 -0.172306 -0.172354 -0.148508 -0.185249 -0.190218 -0.19578 -0.16045 -0.193867 -0.184494 -0.178076 -0.153412 -0.185354 -0.189572 -0.161198 -0.201441 -0.169673 -0.227895 -0.135779 -0.170077 -0.166675 -0.161147 -0.161087 -0.176225 -0.175318 -0.174468 -0.143006 -0.155009 -0.180022 -0.146347 -0.157705 -0.169484 -0.141054 -0.149521 -0.218975 -0.181647 -0.197179 -0.203263 -0.208849 -0.20132 -0.197492 -0.200968 -0.181399 -0.208698 -0.216455 -0.17523 -0.223423 -0.109498 -0.189032 -0.165396 -0.155357 -0.173375 -0.177081 -0.155703 -0.198737 -0.160785 -0.164471 -0.184385 -0.166278 -0.177938 -0.170403 -0.153648 -0.301367 -0.117353 -0.174034 -0.171318 -0.160665 -0.171182 -0.146141 -0.167629 -0.176623
95 -99999 -99999 -99999 -99999 -99999 -99999 -99999 -99999 -99999 -99999 -99999 -99999 -99999 -99999 -99999 -99999 -99999 -99999 -99999 -99999 -99999 -99999 -99999 -99999 -99999 -99999 -99999 -99999 -99999 -99999 -99999 -99999 -99999 -99999 -99999 -99999 -99999 -99999 -99999 -99999 -99999 -99999 -99999 -99999 -99999 -99999 -99999 -99999 -99999 -99999 -99999 -99999 -99999 -99999 -99999 -99999 -99999 -99999 -99999 -99999 -99999 -99999 -99999 -99999 -99999 -99999 -99999 -99999 -99999 -99999 -99999 -99999 -99999 -99999 -99999 -99999 -99999 -99999 -99999 -99999 -99999 -99999 -99999 -99999 -99999 -99999 -99999 -99999 -99999
96 -0.339422 -99999 -0.306284 -0.286706 -0.293029 -0.323296 -0.316655 -0.304514 -0.312156 -0.317913 -0.353455 -0.31769 -0.307702 -0.314579 -0.312842 -0.277524 -0.36747 -0.3825 -0.297295 -0.288762 -0.312621 -0.282259 -0.327847 -0.308271 -0.33066 -0.322144 -0.31636 -0.304056 -0.302725 -0.295606 -0.296489 -0.274713 -0.293962 -0.308368 -0.29286 -0.29 -0.297463 -0.312807 -0.322122 -0.319754 -0.311287 -0.286622 -0.276588 -0.295733 -0.311531 -0.310634 -0.273317 -0.301741 -0.283153 -0.300149 -0.246079 -0.243958 -0.26547 -0.301662 -0.281581 -0.290356 -0.351461 -0.327218 -0.288739 -0.333776 -0.322084 -0.298805 -0.269527 -0.28947 -0.311867 -0.294795 -0.309533 -0.271702 -0.290924 -0.288157 -0.301476 -0.313293 -0.325996 -0.293073 -0.319918 -0.286286 -0.288068 -0.307881 -0.295653 -0.281796 -0.295169 -0.52541 -0.289853 -0.281308 -0.279069 -0.270856 -0.269962 -0.274909 -0.254646
97 -0.318897 -0.267949 -0.365354 -0.310356 -0.370383 -0.370329 -0.379391 -0.353495 -0.34394 -0.37946 -0.397154 -0.360959 -0.3579 -0.360585 -0.355653 -0.35635 -0.380879 -0.344535 -0.35286 -0.340759 -0.34152 -0.324168 -0.367418 -0.350868 -0.368522 -0.381615 -0.366941 -0.361684 -0.354703 -0.348081 -0.370162 -0.329643 -0.345572 -0.369569 -0.357933 -0.395532 -0.29339 -0.369728 -0.355846 -0.361564 -0.361412 -0.341459 -0.349376 -0.37103 -0.370682 -0.353552 -0.346024 -0.353262 -0.34934 -0.322224 -0.34619 -0.336806 -0.341327 -0.369763 -0.376485 -0.393966 -0.378642 -0.343203 -0.360478 -0.377857 -0.350232 -0.360299 -0.375744 -0.359176 -0.385956 -0.363265 -0.379323 -0.344243 -0.358938 -0.358735 -0.345655 -0.336139 -0.343488 -0.359477 -0.349336 -0.35672 -0.356517 -0.357463 -0.324961 -0.349854 -0.338866 -0.316207 -0.343828 -0.321552 -0.337959 -0.348722 -0.337192 -0.340641 -0.34053
98 -1.07231 -99999 -1.07321 -1.0939 -1.0649 -1.09091 -1.14348 -1.10427 -1.1004 -1.05895 -1.04771 -0.995182 -0.994235 -1.0706 -1.11488 -1.03309 -1.00853 -99999 -1.09785 -1.05239 -1.08353 -1.04666 -1.08311 -1.09669 -1.11447 -1.08 -1.12119 -1.1134 -1.06454 -1.04968 -1.10858 -1.10841 -1.07772 -1.1221 -1.09408 -99999 -0.901969 -1.07147 -1.09983 -1.09989 -1.04453 -1.07162 -1.04372 -1.08195 -1.09111 -1.09192 -1.08741 -1.11017 -1.08946 -1.06485 -1.10585 -1.1101 -1.08951 -1.01755 -1.14492 -1.16928 -1.1364 -1.10018 -1.07614 -1.05816 -1.0733 -1.15293 -1.04836 -1.0876 -1.12917 -99999 -1.08044 -1.09083 -1.06968 -1.08369 -1.04498 -1.0974 -1.11123 -1.09872 -1.11511 -1.06148 -1.11096 -1.09703 -1.04663 -1.06703 -99999 -99999 -1.06442 -1.0646 -1.06232 -1.09131 -1.02944 -1.04158 -1.03164
99 -99999 -99999 -99999 -99999 -99999 -99999 -99999 -99999 -99999 -99999 -99999 -99999 -99999 -99999 -99999 -99999 -99999 -99999 -99999 -99999 -99999 -99999 -99999 -99999 -99999 -99999 -99999 -99999 -99999 -99999 -99999 -99999 -99999 -99999 -99999 -99999 -99999 -99999 -99999 -99999 -99999 -99999 -99999 -99999 -99999 -99999 -99999 -99999 -99999 -99999 -99999 -99999 -99999 -99999 -99999 -99999 -99999 -99999 -99999 -99999 -99999 -99999 -99999 -99999 -99999 -99999 -99999 -99999 -99999 -99999 -99999 -99999 -99999 -99999 -99999 -99999 -99999 -99999 -99999 -99999 -99999 -99999 -99999 -99999 -99999 -99999 -99999 -99999 -99999
100 -0.316515 -0.383214 -0.320252 -0.342524 -0.316146 -0.309481 -0.357128 -0.309136 -0.302055 -0.32454 -0.342803 -0.266848 -0.238095 -0.307533 -0.322926 -0.325184 -0.321336 -0.299055 -0.312676 -0.303434 -0.303136 -0.306226 -0.336102 -0.318029 -0.325684 -0.394289 -0.341079 -0.355598 -0.315023 -0.313272 -0.379018 -0.360318 -0.340586 -0.336725 -0.331569 -0.2745 -0.350656 -0.375521 -0.344368 -0.362099 -0.321421 -0.372117 -0.372169 -0.32297 -0.344276 -0.377245 -0.353493 -0.373828 -0.359076 -0.324001 -0.364379 -0.383347 -0.434765 -0.387389 -0.384328 -0.399191 -0.330356 -0.352839 -0.336357 -0.317092 -0.31959 -0.363916 -0.350102 -0.348315 -0.392408 -0.368593 -0.329855 -0.314426 -0.297341 -0.339388 -0.319687 -0.327946 -0.360506 -0.373857 -0.352621 -0.338346 -0.348208 -0.33859 -0.353505 -0.37482 -0.441042 -0.404462 -0.352907 -0.323409 -0.31931 -0.373547 -0.372212 -0.358269 -0.366321
101 -0.32701 -0.36963 -0.309037 -0.283949 -0.323381 -0.32718 -0.341278 -0.309965 -0.300337 -0.335646 -0.410957 -0.338675 -0.333071 -0.3196 -0.322963 -0.28702 -0.356646 -0.31227 -0.307402 -0.315242 -0.306376 -0.278941 -0.365847 -0.30713 -0.324876 -0.356254 -0.325714 -0.327421 -0.290389 -0.308256 -0.340474 -0.266599 -0.316394 -0.300905 -0.280431 -0.326167 -0.304018 -0.334302 -0.2826 -0.320116 -0.293725 -0.296076 -0.299694 -0.305195 -0.344889 -0.293387 -0.295007 -0.378382 -0.314233 -0.317483 -0.28474 -0.310826 -0.33121 -0.310116 -0.325921 -0.25962 -0.308407 -0.348753 -0.325837 -0.365723 -0.325039 -0.326355 -0.358404 -0.303942 -0.327873 -0.393844 -0.307653 -0.301463 -0.330608 -0.321554 -0.318222 -0.290725 -0.350408 -0.303474 -0.273332 -0.312689 -0.290108 -0.301934 -0.3085 -0.300114 -0.210652 -0.462766 -0.305451 -0.332808 -0.296317 -0.296795 -0.298704 -0.312177 -0.296774
102 -0.169761 -0.330339 -0.182364 -0.163322 -0.161528 -0.170487 -0.199724 -0.168132 -0.151579 -0.186527 -0.138626 -0.231147 -0.157985 -0.171705 -0.183796 -0.195298 -0.159622 -0.24 -0.173178 -0.157411 -0.170448 -0.148148 -0.199219 -0.181645 -0.174222 -0.196162 -0.175409 -0.179823 -0.174423 -0.159819 -0.208431 -0.1979 -0.161885 -0.194182 -0.159778 -0.0745714 -0.129363 -0.180993 -0.182719 -0.198545 -0.188598 -0.166936 -0.146094 -0.214544 -0.183507 -0.140947 -0.169018 -0.175279 -0.173142 -0.155723 -0.16191 -0.154279 -0.20418 -0.170779 -0.160431 -0.197616 -0.203251 -0.195133 -0.174994 -0.167877 -0.168886 -0.177554 -0.153168 -0.180399 -0.200604 -0.15871 -0.186139 -0.162401 -0.181502 -0.162871 -0.155678 -0.165655 -0.193654 -0.147112 -0.17084 -0.165654 -0.155628 -0.170114 -0.204782 -0.168249 -0.121776 -0.221852 -0.153523 -0.141854 -0.141386 -0.171652 -0.149522 -0.160135 -0.159039
103 -0.271017 -0.369024 -0.265407 -0.297881 -0.285431 -0.298652 -0.305937 -0.301063 -0.283464 -0.262025 -0.424298 -0.299317 -0.320688 -0.283049 -0.283125 -0.297081 -0.26275 -0.333103 -0.281311 -0.262726 -0.260136 -0.25408 -0.29995 -0.278019 -0.297863 -0.32378 -0.287122 -0.278134 -0.277745 -0.265641 -0.286932 -0.318207 -0.271024 -0.268156 -0.280849 -0.264639 -0.288892 -0.272362 -0.274354 -0.320265 -0.275446 -0.284568 -0.276062 -0.279234 -0.321376 -0.271876 -0.280075 -0.259647 -0.268399 -0.280091 -0.255892 -0.252575 -0.275721 -0.297301 -0.306746 -0.34411 -0.296389 -0.257128 -0.279119 -0.33685 -0.289489 -0.299813 -0.379765 -0.27498 -0.30732 -0.289331 -0.277519 -0.253967 -0.27897 -0.269988 -0.265519 -0.252339 -0.29071 -0.268575 -0.268201 -0.27637 -0.292502 -0.261769 -0.290665 -0.266214 -0.230889 -0.482424 -0.262364 -0.271382 -0.251934 -0.263705 -0.256966 -0.279117 -0.265723
104 -1.4426 -99999 -1.51092 -1.57853 -1.44662 -1.55894 -1.49464 -1.47898 -1.52227 -1.52057 -1.66178 -1.51 -1.31312 -1.48599 -1.51911 -1.50431 -1.53756 -99999 -1.5248 -1.49421 -1.48217 -1.45946 -1.58092 -1.5207 -1.56132 -1.54292 -1.52268 -1.49814 -1.4891 -1.47935 -1.43857 -1.54651 -1.5021 -1.49243 -1.4464 -99999 -1.4207 -1.46736 -1.44794 -1.43905 -1.44821 -1.46269 -1.47532 -1.44971 -1.57724 -1.51101 -1.44674 -1.53161 -1.47254 -1.52113 -1.48651 -1.48536 -1.54675 -1.53107 -1.49605 -1.42714 -1.47173 -1.47198 -1.48299 -1.48087 -1.50026 -1.52623 -99999 -1.50396 -1.53869 -1.47161 -1.51616 -1.4579 -1.52037 -1.49937 -1.44318 -1.49728 -1.46322 -1.5165 -1.47049 -1.49984 -1.49918 -1.48371 -1.47021 -1.51397 -99999 -99999 -1.49622 -1.54572 -1.4334 -1.47773 -1.48738 -1.47665 -1.47881
105 -99999 -99999 -99999 -99999 -99999 -99999 -99999 -99999 -99999 -99999 -99999 -99999 -99999 -99999 -99999 -99999 -99999 -99999 -99999 -99999 -99999 -99999 -99999 -99999 -99999 -99999 -99999 -99999 -99999 -99999 -99999 -99999 -99999 -99999 -99999 -99999 -99999 -99999 -99999 -99999 -99999 -99999 -99999 -99999 -99999 -99999 -99999 -99999 -99999 -99999 -99999 -99999 -99999 -99999 -99999 -99999 -99999 -99999 -99999 -99999 -99999 -99999 -99999 -99999 -99999 -99999 -99999 -99999 -99999 -99999 -99999 -99999 -99999 -99999 -99999 -99999 -99999 -99999 -99999 -99999 -99999 -99999 -99999 -99999 -99999 -99999 -99999 -99999 -99999
106 -0.259136 -99999 -0.271144 -0.345119 -0.29296 -0.289438 -0.298925 -0.308934 -0.317276 -0.332519 -0.38834 -0.285742 -0.229703 -0.302909 -0.299052 -0.285993 -0.281252 -0.341579 -0.288844 -0.291317 -0.318503 -0.271997 -0.303374 -0.301268 -0.304574 -0.346121 -0.308753 -0.300019 -0.284624 -0.284594 -0.2992 -0.312959 -0.283542 -0.331111 -0.287095 -0.295577 -0.307209 -0.30646 -0.301677 -0.313955 -0.302533 -0.281067 -0.280692 -0.269514 -0.275528 -0.282953 -0.284894 -0.305585 -0.287681 -0.274178 -0.260414 -0.276308 -0.318037 -0.307012 -0.296434 -0.312408 -0.313337 -0.30155 -0.310847 -0.304587 -0.292539 -0.292644 -0.38098 -0.290015 -0.314025 -0.270807 -0.311127 -0.297219 -0.292178 -0.2779 -0.260272 -0.299235 -0.283555 -0.289853 -0.329814 -0.284299 -0.276172 -0.280695 -0.310258 -0.286229 -0.282941 -0.417089 -0.282852 -0.325926 -0.265024 -0.281052 -0.27328 -0.312221 -0.270536
107 -0.200114 -99999 -0.214405 -0.210688 -0.239995 -0.214498 -0.23974 -0.232501 -0.220828 -0.250724 -0.16519 -0.245483 -0.161245 -0.202716 -0.206413 -0.258769 -0.240431 -0.23716 -0.222948 -0.207932 -0.219351 -0.192748 -0.178895 -0.223993 -0.23623 -0.264492 -0.224534 -0.222659 -0.186383 -0.209146 -0.270089 -0.224224 -0.189983 -0.234913 -0.207935 -0.156364 -0.180905 -0.193554 -0.220252 -0.222239 -0.183734 -0.205946 -0.220011 -0.225655 -0.239767 -0.199021 -0.193373 -0.217994 -0.196347 -0.201638 -0.183082 -0.200399 -0.223266 -0.203141 -0.203226 -0.270944 -0.256498 -0.223843 -0.225284 -0.238141 -0.215143 -0.226176 -0.304054 -0.21317 -0.232407 -0.18225 -0.217813 -0.208982 -0.22422 -0.206357 -0.165752 -0.167541 -0.251396 -0.201553 -0.209043 -0.186413 -0.193543 -0.213311 -0.183315 -0.195446 -0.361915 -0.259487 -0.197819 -0.203254 -0.188894 -0.19529 -0.186708 -0.211203 -0.182004
108 -0.329467 -0.217347 -0.387611 -0.444045 -0.359307 -0.383064 -0.380224 -0.353548 -0.375746 -0.376251 -0.399076 -0.403159 -0.357541 -0.364079 -0.383345 -0.38064 -0.332706 -0.439195 -0.369922 -0.361803 -0.367283 -0.335372 -0.382134 -0.367794 -0.386941 -0.415214 -0.382707 -0.380904 -0.370738 -0.356438 -0.424642 -0.390418 -0.349233 -0.357364 -0.367608 -0.387222 -0.38963 -0.355199 -0.374552 -0.369107 -0.367045 -0.361079 -0.384399 -0.405126 -0.43064 -0.335499 -0.359148 -0.361976 -0.370919 -0.353318 -0.347352 -0.357123 -0.373744 -0.388034 -0.326766 -0.323028 -0.407016 -0.394979 -0.379854 -0.368579 -0.373024 -0.370877 -0.412011 -0.378065 -0.376269 -0.403714 -0.37364 -0.350353 -0.368156 -0.351973 -0.346182 -0.33022 -0.392185 -0.370308 -0.362057 -0.375787 -0.346022 -0.376438 -0.366635 -0.343801 -0.44025 -99999 -0.36521 -0.349765 -0.345391 -0.336011 -0.344254 -0.375351 -0.344995
109 -0.208513 -0.227273 -0.190973 -0.19161 -0.167427 -0.208304 -0.224951 -0.201682 -0.192667 -0.167961 -0.203537 -0.207059 -0.193758 -0.187996 -0.200884 -0.194529 -0.17357 -0.155657 -0.199261 -0.184039 -0.208192 -0.166507 -0.201217 -0.191706 -0.20458 -0.236076 -0.198631 -0.199501 -0.189249 -0.174357 -0.235901 -0.202247 -0.195316 -0.18951 -0.182622 -0.239524 -0.243467 -0.228646 -0.205928 -0.215633 -0.181733 -0.199575 -0.187364 -0.211841 -0.190433 -0.182686 -0.199447 -0.184709 -0.181363 -0.164916 -0.194335 -0.17213 -0.205385 -0.215826 -0.199994 -0.213125 -0.232856 -0.218222 -0.220493 -0.27687 -0.217276 -0.207129 -0.285508 -0.190796 -0.210922 -0.163029 -0.205816 -0.214555 -0.201306 -0.201438 -0.204551 -0.170724 -0.230372 -0.182103 -0.18298 -0.167707 -0.184883 -0.190444 -0.214866 -0.179631 -0.1824 -0.289474 -0.192325 -0.192862 -0.151492 -0.182957 -0.174411 -0.204352 -0.18493
110 -1.83463 -99999 -1.85573 -1.83673 -1.757 -1.71996 -1.75793 -1.78884 -1.68602 -1.77448 -99999 -1.845 -99999 -1.78313 -1.80953 -1.75438 -1.89321 -99999 -1.80003 -1.78473 -1.69772 -1.77997 -1.79873 -1.78338 -1.80228 -1.7498 -1.81245 -1.79111 -1.74932 -1.77252 -1.74993 -1.71549 -1.80817 -1.69971 -1.7451 -99999 -1.88448 -1.72186 -1.81364 -1.8452 -1.75658 -1.7964 -1.78092 -1.77018 -1.81375 -1.80751 -1.80672 -1.72399 -1.77197 -1.81841 -1.73798 -1.76809 -1.82655 -1.83839 -1.73436 -99999 -1.86447 -1.72534 -1.80842 -1.77806 -1.76563 -1.73985 -99999 -1.79131 -1.82606 -99999 -1.79376 -1.66694 -1.74883 -1.73277 -1.77919 -1.76502 -1.82647 -1.83778 -1.73265 -1.7597 -1.7845 -1.79314 -1.7178 -1.72811 -99999 -99999 -1.74664 -1.73706 -1.74825 -1.75464 -1.76189 -1.75705 -1.71444
111 -99999 -99999 -99999 -99999 -99999 -99999 -99999 -99999 -99999 -99999 -99999 -99999 -99999 -99999 -99999 -99999 -99999 -99999 -99999 -99999 -99999 -99999 -99999 -99999 -99999 -99999 -99999 -99999 -99999 -99999 -99999 -99999 -99999 -99999 -99999 -99999 -99999 -99999 -99999 -99999 -99999 -99999 -99999 -99999 -99999 -99999 -99999 -99999 -99999 -99999 -99999 -99999 -99999 -99999 -99999 -99999 -99999 -99999 -99999 -99999 -99999 -99999 -99999 -99999 -99999 -99999 -99999 -99999 -99999 -99999 -99999 -99999 -99999 -99999 -99999 -99999 -99999 -99999 -99999 -99999 -99999 -99999 -99999 -99999 -99999 -99999 -99999 -99999 -99999
112 -0.428279 -99999 -0.431814 -0.466813 -0.457463 -0.443789 -0.446142 -0.45717 -0.378487 -0.432579 -0.519535 -0.495386 -0.422334 -0.434256 -0.425706 -0.434101 -0.424194 -0.467381 -0.440625 -0.415146 -0.460293 -0.413056 -0.462633 -0.429339 -0.435305 -0.466894 -0.450143 -0.437639 -0.446157 -0.424126 -0.435589 -0.453394 -0.436424 -0.454618 -0.421156 -0.372342 -0.422071 -0.451714 -0.435753 -0.45325 -0.425752 -0.436239 -0.42294 -0.397776 -0.445744 -0.42709 -0.436192 -0.444347 -0.417023 -0.410401 -0.424032 -0.41298 -0.451334 -0.442172 -0.441091 -0.362113 -0.451928 -0.4309 -0.427949 -0.447086 -0.434622 -0.450098 -0.353571 -0.43422 -0.453066 -0.412767 -0.430894 -0.429108 -0.424438 -0.433176 -0.419544 -0.423434 -0.458769 -0.427265 -0.448796 -0.454994 -0.423115 -0.436622 -0.42102 -0.420665 -0.454375 -0.518684 -0.432559 -0.440173 -0.419657 -0.427501 -0.42257 -0.429624 -0.404096
113 -0.296815 -99999 -0.334574 -0.349456 -0.340178 -0.356087 -0.368102 -0.344462 -0.306875 -0.360984 -0.278655 -0.34385 -0.337012 -0.333879 -0.344312 -0.354529 -0.290592 -0.415087 -0.347229 -0.322182 -0.335362 -0.304926 -0.350636 -0.339582 -0.349124 -0.335361 -0.338795 -0.344688 -0.319882 -0.319441 -0.384166 -0.377455 -0.337824 -0.332892 -0.315331 -0.346867 -0.330537 -0.374791 -0.351042 -0.322781 -0.343217 -0.352974 -0.355008 -0.33758 -0.367765 -0.340858 -0.339214 -0.349108 -0.325787 -0.320447 -0.321318 -0.317607 -0.357225 -0.3676 -0.325647 -0.387803 -0.371785 -0.350946 -0.338401 -0.354275 -0.343265 -0.344294 -0.341538 -0.353868 -0.363712 -0.361935 -0.366766 -0.304817 -0.306596 -0.347139 -0.351039 -0.328789 -0.340387 -0.332025 -0.325405 -0.3201 -0.328342 -0.337103 -0.363948 -0.318828 -0.256585 -0.286812 -0.340766 -0.34335 -0.314881 -0.325852 -0.316694 -0.321128 -0.30644
